{
"sites":[
{"key":"csp_AppYsV2_大熊","name":"蓝光4K首页(0324)","type":3,"api":"csp_AppYsV2","searchable":1,"quickSearch":0,"filterable":1,"ext":"https://dxys2233.com/mogai_api.php/v1.vod"},
{"key":"csp_77","name":"77(爬虫)","type":3,"api":"csp_Kunyu77","searchable":1,"quickSearch":1,"filterable":1},
{"key":"csp_kmys","name":"酷猫影视(爬虫)","type":3,"api":"csp_Kmys","searchable":1,"quickSearch":1,"filterable":1},
{"key":"csp_xpath_txsp","name":"腾讯官采","type":1,"api":"https://wabc.ml/mao/1.php/provide/vod/at/xml","searchable":1,"quickSearch":1,"filterable":0},
{"key":"融兴CMS","name":"融兴(rx)","type":0,"searchable":1,"quickSearch":1,"filterable":1,"api":"https://997.yuanmajs.cn/api.php/provide/vod/from/rx/at/xml","playUrl":""},              
{"key":"苍蓝切片","name":"苍蓝直链","type":1,"api":"http://shangjihuoke.com/api.php/provide/vod/from/CL4K","playUrl":"http://ts.yjhan.com:8090/api/?type=app&key=DSQFgXdmj9xkDyiXdr&url="},       
{"key":"csp_xpath_lanmei","name":"蓝莓影视(XP)","type":3,"api":"csp_XPathFilter","searchable":1,"quickSearch":1,"filterable":1,"ext":"https://mo-xiao.coding.net/p/c/d/c/git/raw/master/sub/xpath/lanmei.json"},
{"key":"抹茶猪(龙腾)","name":"抹茶猪(龙腾)","type":1,"api":"https://www.mczdyw.com/api.php/provide/vod/","playUrl":"https://diaoyong.qd234.cn/?url=","searchable":1,"quickSearch":1,"filterable":0},
{"key":"csp_appys_zhuiju8","name":"追剧吧(M,广告)","type":3,"api":"csp_AppYs","searchable":1,"quickSearch":1,"filterable":1,"ext":"http://zhuiju8.vip/api.php/v1.vod"},
{"key":"影世界","name":"影世界","type":1,"api":"https://video.yingworld.vip/api.php/provide/vod/","playUrl":"json:https://apis.jxcxin.cn/api/jx?url=","searchable":1,"quickSearch":1,"filterable":0,"categories":["电影","连续剧","综艺","动漫"]},
{"key":"csp_appysv2_全能","name":"全能(M2)","type":3,"api":"csp_AppYsV2","searchable":1,"quickSearch":0,"filterable":1,"ext":"https://qnys5566.com/mogai_api.php/v1.vod"},
{"key":"csp_appysv2_手指","name":"手指(M2)","type":3,"api":"csp_AppYsV2","searchable":1,"quickSearch":0,"filterable":1,"ext":"https://szys5678.com/mogai_api.php/v1.vod"},
{"key":"csp_appysv2_南府影视","name":"南府影视(M2)","type":3,"api":"csp_AppYsV2","searchable":1,"quickSearch":0,"filterable":1,"ext":"http://iapp.nfuxs.club/dnmb.php/v1.vod"},
{"key":"csp_优_300看世界","name":"300看世界(M)","type":3,"api":"csp_AppYs","searchable":1,"quickSearch":1,"filterable":1,"ext":"https://300ys.xyz/api.php/v1.vod"},
{"key":"csp_优_初心影视","name":"初心影视(广告)","type":3,"api":"csp_AppYs","searchable":1,"quickSearch":1,"filterable":1,"ext":"https://www.18mv.club/api.php/v1.vod"},
{"key":"auete_spider","name":"Auete影视(SP)","type":3,"api":"csp_Auete","searchable":1,"quickSearch":1,"filterable":1,"ext":"https://wabc.ml/mao/jk/auete.json"},
{"key":"csp_appysv2_影视达人","name":"影视达人(M2)","type":3,"api":"csp_AppYsV2","searchable":1,"quickSearch":1,"filterable":1,"ext":"http://www.ysdr.vip/api.php/v1.vod"},
{"key":"csp_AppYsV2_DC影视","name":"DC影视(优)","type":3,"api":"csp_AppYsV2","searchable":1,"quickSearch":0,"filterable":1,"ext":"http://chaorenbb.com/api.php/v1.vod"},
{"key":"csp_Enlienli","name":"嗯哩嗯哩(爬虫)","type":3,"api":"csp_Enlienli","searchable":1,"quickSearch":0,"filterable":1},
{"key":"csp_Auete","name":"Auete(爬虫)","type":3,"api":"csp_Auete","searchable":1,"quickSearch":0,"filterable":1},
{"key":"csp_Cokemv","name":"Cokemv(爬虫)","type":3,"api":"csp_Cokemv","searchable":1,"quickSearch":0,"filterable":1},
{"key":"csp_N0ys","name":"90影视(爬虫)","type":3,"api":"csp_N0ys","searchable":1,"quickSearch":0,"filterable":0},
{"key":"csp_Nekk","name":"9E看看(爬虫)","type":3,"api":"csp_Nekk","searchable":1,"quickSearch":0,"filterable":1},
{"key":"csp_appysv2_飓风影院","name":"飓风影院","type":3,"api":"csp_AppYsV2","searchable":1,"quickSearch":1,"filterable":1,"ext":"http://yidayy.top/lehailb_api.php/v1.vod"},
{"key":"csp_appys_闲人视频","name":"高清视频","type":3,"api":"csp_AppYs","searchable":1,"quickSearch":0,"filterable":1,"ext":"http://yingshi.xibiandexianren.cn/lvdou_api.php/v1.vod"},
{"key":"非凡采集","name":"非凡采集","type":1,"api":"http://cms.feifan12.xyz/api.php/provide/vod/","playUrl":""},
{"key":"xmmi","name":"小猫咪(采集)","type":1,"api":"http://xiaomaomi.cc/api.php/provide/vod/","playUrl":"http://xiaomaomi.cc/player/analysis.php?v="},
{"key":"江北","name":"高清官采","type":1,"api":"https://gfzycj.hnmj.vip/api.php/provide/vod/","playUrl":"","searchable":1,"quickSearch":1,"categories":[]},
{"key":"QL资源","name":"绮丽(官采¹)","type":0,"api":"http://www.qilinzyz.com/api.php/provide/vod/at/xml","playUrl":"","categories":["电影","连续剧","动作片","喜剧片","爱情片","科幻片","恐怖片","剧情片","战争片","惊悚片","犯罪片","冒险片","悬疑片","动画片","武侠片","奇幻片","纪录片","国产剧","港台剧","日韩剧","欧美剧","综艺","动漫","电影（B站）","电视剧（B站）","番剧（B站）","国创（B站）"]},
{"key":"77dy","name":"七七采集","type":0,"api":"https://www.77diany.com/api.php/provide/vod/at/xml/","playUrl":"","searchable":1,"quickSearch":1,"filterable":0},
{"key":"bilibili","name":"B站(采集)","type":0,"searchable":1,"quickSearch":1,"filterable":1,"api":"http://zy.yilans.net:8090/api.php/provide/vod/from/bilibili/at/xml","playUrl":""},
{"key":"胖猫","name":"胖猫资源","type":0,"api":"https://www.pangmaotv.com/api.php/provide/vod/at/xml","playUrl":""},
{"key":"quanwt","name":"全网采集","type":0,"api":"http://107.150.5.146:39000/maccms10-main/api.php/provide/vod/at/xml","playUrl":""},
{"key":"人人迷","name":"人人蓝光¹","type":0,"searchable":1,"quickSearch":1,"api":"https://koko.renrenmi.cc/api.php/provide/vod","playUrl":"https://analysis.yikan.one/analysis/player/?uid=8&my=fjkmoqFJLORTVZ1359&url="},
{"key":"人人","name":"人人迷⁺","type":1,"searchable":1,"quickSearch":1,"filterable":1,"api":"https://koko.renrenmi.cc/api.php/provide/vod/","playUrl":"https://jx.blbo.cc:4433/?url="},
{"key":"人人蓝光","name":"人人蓝光²","type":1,"api":"http://shangjihuoke.com/api.php/provide/vod/from/renrenmi"},
{"key":"人人迷²","name":"人人蓝光³","type":0,"searchable":1,"quickSearch":1,"filterable":1,"api":"https://video.yingworld.vip/api.php/provide/vod/from/renrenmi/at/xml","playUrl":""},
{"key":"影世界","name":"影世界(采集)","type":0,"api":"http://video.yingworld.vip/api.php/provide/vod/at/xml","playUrl":""},
{"key":"念念剧场","name":"念念(CMS)","type":0,"searchable":1,"quickSearch":1,"filterable":1,"api":"https://997.yuanmajs.cn/api.php/provide/vod/at/xml"},
{"key":"CMS¹","name":"易看(CMS)","type":0,"searchable":1,"quickSearch":1,"filterable":1,"api":"https://video.yingworld.vip/api.php/provide/vod/at/xml","playUrl":""},
{"key":"天堂资源","name":"天堂资源","type":1,"api":"http://vipmv.cc/api.php/provide/vod/","playUrl":"","categories":[]},
{"key":"淘片资源","name":"淘片资源","type":0,"api":"https://taopianapi.com/home/cjapi/as/mc/vod/xml/m3u8","playUrl":""},
{"key":"快看","name":"快看(官采₄)","type":0,"api":"https://tv.youhuifuligou.com/api.php/provide/vod/at/xml","playUrl":"","searchable":1,"quickSearch":1,"categories":["综艺","动漫","动作片","喜剧片","爱情片","科幻片","恐怖片","剧情片","战争片","国产剧","港台剧","日韩剧","欧美剧"]},
{"key":"M3U","name":"m3u8(采集₁)","type":0,"api":"http://www.zycaiji.net:7788/api.php/provide/vod/at/xml","playUrl":"","categories":["动画片番剧（B站专用）","国创（B站专用）","电影（B站专用）","电视剧（B站专用）","综艺","动漫","动作片","喜剧片","爱情片","科幻片","恐怖片","剧情片","战争片","国产剧","港台剧","日韩剧","惊悚片","犯罪片","冒险片","悬疑片","动画片","武侠片","奇幻片","纪录片"]},
{"key":"1902","name":"1902i","type":0,"api":"http://zy.1920i.com/api.php/provide/vod/at/xml","playUrl":"","searchable":1,"quickSearch":1,"categories":["电影","电视剧","综艺","动漫","动作片","喜剧片","爱情片","科幻片","恐怖片","剧情片","战争片","国产剧","港台剧","日韩剧","欧美剧","惊悚片","犯罪片","冒险片","悬疑片","动画片","武侠片","奇幻片","记录片","B站","番剧（B站）","国创（B站）","电影（B站）","电视剧（B站）","电影（不可绑定）","电视剧（不可绑定）"]},
{"key":"诺讯","name":"诺讯(采集³)","type":1,"searchable":1,"quickSearch":1,"filterable":1,"api":"https://caiji.nxflv.com/api.php/provide/vod/","playUrl":"","searchable":1,"quickSearch":1,"categories":["综艺频道","动漫频道","综合频道","动作片","喜剧片","爱情片","科幻片","恐怖片","剧情片","战争片","国产剧","港台剧","日韩剧","欧美剧"]},
{"key":"灯塔","name":"灯塔(采集⁴)","type":0,"searchable":1,"quickSearch":1,"filterable":1,"api":"http://vip.hwh.ink/api.php/provide/vod/at/xml","playUrl":"","searchable":1,"quickSearch":1,"categories":[]},
{"key":"云海","name":"云海(采集⁵）","type":0,"searchable":1,"quickSearch":1,"filterable":1,"api":"http://101.34.7.151:600/api.php/provide/vod/at/xml","playUrl":""},
{"key":"星一","name":"星一(采集⁶）","type":0,"searchable":1,"quickSearch":1,"filterable":1,"api":"https://gcku.suboyun.vip/api.php/provide/vod/at/xml","playUrl":""},
{"key":"wk","name":"饭团采集","type":0,"api":"http://television.wkfile.com/api.php/provide/vod/at/xml","searchable":1,"quickSearch":1,"categories":[]},
{"key":"千寻影视","name":"千寻采集","type":1,"api":"http://wy.dqyhg.cn/api.php/provide/vod/?ac=list","searchable":1,"quickSearch":1,"filterable":0,"categories":["电影","综艺","动漫","连续剧","动作片","喜剧片","爱情片","科幻片","恐怖片","剧情片","战争片","国产剧","港台剧","日韩剧","欧美剧"]},
{"key":"嘛哩","name":"动漫G(采集²)","type":0,"searchable":1,"quickSearch":1,"filterable":1,"api":"https://malimali3.com/api.php/provide/vod/at/xml","playUrl":""},
{"key":"韩剧资源","name":"韩剧资源G","type":0,"api":"http://www.hanjuzy.com/inc/api.php","playUrl":"","categories":[]},
{"key":"美剧星球","name":"美剧星球","type":0,"api":"https://www.meijuxq.tv/inc/api.php/provide/vod/at/xml","searchable":1,"quickSearch":1,"filterable":0,"categories":["魔幻/科幻","灵异/惊悚","都市/情感","犯罪/历史","动漫/卡通","综艺/记录"]},
{"key":"OmoFun动漫","name":"OF动漫(分类点播)","type":1,"api":"https://www.omofun.com/api.php/provide/vod/","playUrl":"","categories":[]},
{"key":"乐多","name":"乐多采集","type":0,"api":"https://cj.leduocaiji.com/inc/api.php","playUrl":"https://api.xxctzy.com/1.php?vid=","categories":["综艺","动作片","喜剧片","爱情片","科幻片","恐怖片","剧情片","战争片","国产剧","港剧","日剧","欧美剧","台剧","韩剧","其他动漫","体育赛事","海外剧","纪录片","国产动漫","日本动漫","欧美动漫","动画电影","篮球","足球","网球"]},
{"key":"小小影视","name":"小小影视","type":0,"api":"https://www.mbomovie.com/api.php/provide/vod/at/xml","searchable":1,"quickSearch":0,"filterable":1},
{"key":"U酷","name":"U酷采集","type":1,"searchable":0,"quickSearch":1,"api":"https://api.ukuapi.com/api.php/provide/vod/?ac=list","playUrl":""},
{"key":"csp_appys_蓝光4k","name":"蓝光4K(EXO)","type":3,"api":"csp_AppYs","searchable":1,"quickSearch":0,"filterable":1,"ext":"http://ccxg.xazhutu.com/xgapp.php/v1/"},
{"key":"csp_appysv2_tvip","name":"tvip(M2)","type":3,"api":"csp_AppYsV2","searchable":1,"quickSearch":1,"filterable":1,"ext":"http://app.tvip.cc/api.php/v1.vod"},
{"key":"csp_AppYsV2_极品影视","name":"极品影视(4k)","type":3,"api":"csp_AppYsV2","searchable":1,"quickSearch":0,"filterable":1,"ext":"http://jpsb.yhzy.xyz/api.php/iptv/vod/"},
{"key":"csp_AppYsV2_追剧达人","name":"追剧推荐(4k)","type":3,"api":"csp_AppYsV2","searchable":1,"quickSearch":0,"filterable":1,"ext":"https://vipmv.co/xgapp.php/v1/"},
{"key":"csp_AppYsV2_星空影视","name":"星空推荐(M2)","type":3,"api":"csp_AppYsV2","searchable":1,"quickSearch":0,"filterable":1,"ext":"https://xkys.tv/xgapp.php/v1/"},
{"key":"csp_AppYsV2_天空影视","name":"天空推荐(4k)","type":3,"api":"csp_AppYsV2","searchable":1,"quickSearch":0,"filterable":1,"ext":"https://tkys.tv/xgapp.php/v1/"},
{"key":"csp_AppYsV2_天空影视V2","name":"天空影视V2(4k)","type":3,"api":"csp_AppYsV2","searchable":1,"quickSearch":0,"filterable":1,"ext":"https://www.tkys.tv/xgapp.php/v2/"},
{"key":"csp_AppYsV2_天空TV","name":"天空TV(IPTV)","type":3,"api":"csp_AppYsV2","searchable":1,"quickSearch":0,"filterable":1,"ext":"http://tv.tkys.tv/api.php/iptv/vod/"},
{"key":"csp_AppYsV2_益达影院","name":"益达影院(优)","type":3,"api":"csp_AppYsV2","searchable":1,"quickSearch":0,"filterable":1,"ext":"http://luobu.yss6080.com/mogai_api.php/v1.vod"},
{"key":"csp_AppYsV2_米来影视","name":"米来影视(4k)","type":3,"api":"csp_AppYsV2","searchable":1,"quickSearch":0,"filterable":1,"ext":"http://42.51.37.161:2346/api.php/iptv/vod/"},
{"key":"csp_AppYsV2_七科影视","name":"七科影视(4k)","type":3,"api":"csp_AppYsV2","searchable":1,"quickSearch":0,"filterable":1,"ext":"http://tv.7kfm.cn/api.php/iptv/vod/"},
{"key":"csp_AppYsV2_若惜影视","name":"若惜影视(4k)","type":3,"api":"csp_AppYsV2","searchable":1,"quickSearch":0,"filterable":1,"ext":"http://rxw.ruoxinew.com/api.php/Sntv/vod/"},
{"key":"csp_AppYsV2_影视阁","name":"影视阁(4k)","type":3,"api":"csp_AppYsV2","searchable":1,"quickSearch":0,"filterable":1,"ext":"http://216.98.10.85/api.php/iptv/vod/"},
{"key":"csp_AppYsV2_美剧范","name":"美剧范(4k)","type":3,"api":"csp_AppYsV2","searchable":1,"quickSearch":0,"filterable":1,"ext":"http://ttzmz.net/api.php/v1.vod"},
{"key":"csp_AppYsV2_饭团影视","name":"饭团","type":3,"api":"csp_AppYsV2","searchable":1,"quickSearch":0,"filterable":1,"ext":"http://television.wkfile.com/api.php/app/"},
{"key":"csp_AppYsV2_流星","name":"流星(4k)","type":3,"api":"csp_AppYsV2","searchable":1,"quickSearch":0,"filterable":1,"ext":"http://fkxs2233.com/mogai_api.php/v1.vod"},
{"key":"csp_AppYsV2_心爱","name":"心爱(4k)","type":3,"api":"csp_AppYsV2","searchable":1,"quickSearch":0,"filterable":1,"ext":"https://xays6677.com/mogai_api.php/v1.vod"},
{"key":"csp_AppYsV2_雪梨","name":"雪梨(4k)","type":3,"api":"csp_AppYsV2","searchable":1,"quickSearch":0,"filterable":1,"ext":"https://zsb2233.com/mogai_api.php/v1.vod"},
{"key":"csp_AppYsV2_杨桃","name":"杨桃(4k)","type":3,"api":"csp_AppYsV2","searchable":1,"quickSearch":0,"filterable":1,"ext":"https://ytys3456.com/mogai_api.php/v1.vod"},
{"key":"csp_AppYsV2_海胆影视","name":"海胆影视","type":3,"api":"csp_AppYsV2","searchable":1,"quickSearch":0,"filterable":1,"ext":"http://xf123.cc/api.php/app/"},
{"key":"csp_AppYsV2_京广航","name":"京广影视","type":3,"api":"csp_AppYsV2","searchable":1,"quickSearch":0,"filterable":1,"ext":"https://www.jingguanhang.com/api.php/app/"},
{"key":"csp_AppYsV2_久九影视","name":"久九影视","type":3,"api":"csp_AppYsV2","searchable":1,"quickSearch":0,"filterable":1,"ext":"https://api.58qxk.cn/xgapp.php/v1/"},
{"key":"csp_AppYsV2_看365","name":"365影院","type":3,"api":"csp_AppYsV2","searchable":1,"quickSearch":0,"filterable":1,"ext":"https://www.kan365.xyz/api.php/app/"},
{"key":"csp_AppYsV2_快云影音","name":"快云影音","type":3,"api":"csp_AppYsV2","searchable":1,"quickSearch":0,"filterable":1,"ext":"https://www.kuaiyunyy.com/api.php/app/"},
{"key":"csp_AppYsV2_抹茶猪","name":"抹茶猪","type":3,"api":"csp_AppYsV2","searchable":1,"quickSearch":0,"filterable":1,"ext":"https://www.mczdyw.com/api.php/app/"},
{"key":"csp_AppYsV2_萌蛋蛋","name":"萌蛋蛋","type":3,"api":"csp_AppYsV2","searchable":1,"quickSearch":0,"filterable":1,"ext":"http://app.mengdandan.com/xgapp.php/v1/"},
{"key":"csp_AppYsV2_莫扎兔","name":"莫扎兔","type":3,"api":"csp_AppYsV2","searchable":1,"quickSearch":0,"filterable":1,"ext":"http://www.mozhatu.xyz/api.php/app/"},
{"key":"csp_AppYsV2_躺平影视","name":"躺平影视","type":3,"api":"csp_AppYsV2","searchable":1,"quickSearch":0,"filterable":1,"ext":"http://www.lltpys.com/api.php/app/"},
{"key":"csp_AppYsV2_云海影视","name":"云海影视","type":3,"api":"csp_AppYsV2","searchable":1,"quickSearch":0,"filterable":1,"ext":"https://deity.fun/api.php/app/"},
{"key":"csp_AppYsV2_小七影视","name":"小七影视","type":3,"api":"csp_AppYsV2","searchable":1,"quickSearch":0,"filterable":1,"ext":"http://ys.kd60.cn/api.php/app/"},
{"key":"csp_AppYsV2_月色影视","name":"月色影视","type":3,"api":"csp_AppYsV2","searchable":1,"quickSearch":0,"filterable":1,"ext":"http://69ty.cc/mogai_api.php/v1.vod"},
{"key":"csp_AppYsV2_段友影视1","name":"段友影视","type":3,"api":"csp_AppYsV2","searchable":1,"quickSearch":0,"filterable":1,"ext":"https://shangjihuoke.com/api.php/v1.vod"},
{"key":"csp_AppYsV2_大师兄","name":"大师兄(IPTV)","type":3,"api":"csp_AppYsV2","searchable":1,"quickSearch":0,"filterable":1,"ext":"http://dsxtv.tv.ci/api.php/dsx/vod/"},
{"key":"csp_AppYsV2_913ev1影视","name":"913e影视v1","type":3,"api":"csp_AppYsV2","searchable":1,"quickSearch":0,"filterable":1,"ext":"http://www.913e.net/xgapp.php/v1/"},
{"key":"csp_AppYsV2_TV酷","name":"TV酷","type":3,"api":"csp_AppYsV2","searchable":1,"quickSearch":0,"filterable":1,"ext":"https://www.u23c.com/api.php/app/"},
{"key":"csp_AppYsV2_爱迪影视","name":"爱迪影视","type":3,"api":"csp_AppYsV2","searchable":1,"quickSearch":0,"filterable":1,"ext":"https://aidi.fun/xgapp.php/v1/"},
{"key":"csp_AppYsV2_播放呀","name":"播放呀","type":3,"api":"csp_AppYsV2","searchable":1,"quickSearch":0,"filterable":1,"ext":"https://www.bofangya.com/xgapp.php/v1/"},
{"key":"csp_AppYsV2_苍蓝资源","name":"苍蓝资源","type":3,"api":"csp_AppYsV2","searchable":1,"quickSearch":0,"filterable":1,"ext":"https://vip.ruifenglb.com:4433/api.php/app/"},
{"key":"csp_AppYsV2_段友影视","name":"段友影视","type":3,"api":"csp_AppYsV2","searchable":1,"quickSearch":0,"filterable":1,"ext":"http://js.66app.me/api.php/app/"},
{"key":"csp_AppYsV2_非凡TV","name":"非凡TV","type":3,"api":"csp_AppYsV2","searchable":1,"quickSearch":0,"filterable":1,"ext":"https://app.feifan.live:2087/xgapp.php/v1/"},
{"key":"csp_AppYsV2_迪迪影院","name":"迪迪影院V2(M2)","type":3,"api":"csp_AppYsV2","searchable":1,"quickSearch":0,"filterable":1,"ext":"http://dd88.icu:6080/xgapp.php/v2/"},
{"key":"csp_AppYsV2_1080p","name":"1080p(优)","type":3,"api":"csp_AppYsV2","searchable":1,"quickSearch":0,"filterable":1,"ext":"https://1080p.one/lvdou_api.php/v1.vod"},
{"key":"csp_AppYsV2_4K影院","name":"4K影院(优)","type":3,"api":"csp_AppYsV2","searchable":1,"quickSearch":0,"filterable":1,"ext":"http://1api.4kdytv.com/api.php/v1.vod"},
{"key":"csp_AppYsV2_CJT影院","name":"CJT影院(优)","type":3,"api":"csp_AppYsV2","searchable":1,"quickSearch":0,"filterable":1,"ext":"https://www.cjt521.com/api.php/v1.vod"},
{"key":"csp_AppYsV2_F7高清","name":"F7高清(优)","type":3,"api":"csp_AppYsV2","searchable":1,"quickSearch":0,"filterable":1,"ext":"http://bc.haokanju1.cc/lvdou_api.php/v1.vod"},
{"key":"csp_AppYsV2_HG影视","name":"HG影视(优)","type":3,"api":"csp_AppYsV2","searchable":1,"quickSearch":0,"filterable":1,"ext":"http://hgyx.vip/api.php/v1.vod"},
{"key":"csp_AppYsV2_爱看美剧","name":"爱看美剧(优)","type":3,"api":"csp_AppYsV2","searchable":1,"quickSearch":0,"filterable":1,"ext":"https://www.uumjw.com/api.php/v1.vod"},
{"key":"csp_AppYsV2_爱酷影视","name":"爱酷影视(优)","type":3,"api":"csp_AppYsV2","searchable":1,"quickSearch":0,"filterable":1,"ext":"https://www.zhanlangbu.com/ruifenglb_api.php/v1.vod"},
{"key":"csp_appys_视频TV","name":"雾凇影视(优)","type":3,"api":"csp_AppYs","searchable":1,"quickSearch":0,"filterable":1,"ext":"http://www.wsba.com.cn/api.php/lh/vod"},
{"key":"csp_appys_天空APP","name":"天空APP(优)","type":3,"api":"csp_AppYs","searchable":1,"quickSearch":0,"filterable":1,"ext":"https://www.tkys.tv/xgapp.php/v1/"},
{"key":"csp_appys_BEICUA","name":"北川影视(优)","type":3,"api":"csp_AppYs","searchable":1,"quickSearch":0,"filterable":1,"ext":"https://www.bcwzg.com/api.php/app/"},
{"key":"csp_appys_爱西西","name":"爱西西(优)","type":3,"api":"csp_AppYs","searchable":1,"quickSearch":0,"filterable":1,"ext":"https://myaixixi.com/api.php/app/"},
{"key":"csp_appys_夜神视频","name":"夜神视频(优)","type":3,"api":"csp_AppYs","searchable":1,"quickSearch":1,"filterable":1,"ext":"http://ys.csjcdn.cn/mogai_api.php/v1.vod"},
{"key":"csp_appys_913EPP","name":"913E(优)","type":3,"api":"csp_AppYs","searchable":1,"quickSearch":1,"filterable":1,"ext":"http://www.913e.net/api.php/app/"},
{"key":"酷点app","name":"酷点(优)","type":1,"api":"http://ys.kudian6.com/api.php/provide/vod/","playUrl":""},
{"key":"白熊资源","name":"白熊资源(修)","type":1,"api":"http://www.bxyy5.com/api.php/provide/vod/","playUrl":""},
{"key":"韩剧网","name":"韩剧G(优)","type":1,"api":"https://www.77hanju.com/api.php/provide/vod/from/mkm3u8","playUrl":"","categories":[]},
{"key":"csp_appys_嗷呜影院","name":"嗷呜影院(优)","type":3,"api":"csp_AppYs","searchable":1,"quickSearch":1,"filterable":1,"ext":"http://aowu.pro/api.php/v1.vod"},
{"key":"csp_appys_雪人影视","name":"雪人影视(高清)","type":3,"api":"csp_AppYs","searchable":1,"quickSearch":0,"filterable":1,"ext":"http://qqtvapp.com/xgapp.php/v1/"},
{"key":"csp_appys_流星影视","name":"流星影视(修)","type":3,"api":"csp_AppYs","searchable":1,"quickSearch":0,"filterable":1,"ext":"http://fkxs2233.com/mogai_api.php/v1.vod"},
{"key":"csp_appys_优豆","name":"优豆(优)","type":3,"api":"csp_AppYs","searchable":1,"quickSearch":0,"filterable":1,"ext":"http://app1.udo.cc/api.php/app/"},
{"key":"csp_appys_大熊影视","name":"大熊影视(优)","type":3,"api":"csp_AppYs","searchable":1,"quickSearch":0,"filterable":1,"ext":"https://dxys2233.com/mogai_api.php/v1.vod"},
{"key":"taopian","name":"淘片(优)移动屏蔽","type":0,"api":"https://taopianapi.com/home/cjapi/as/mc/vod/at/xml","playUrl":""},
{"key":"csp_appys_嘀哩DL","name":"嘀哩嘀哩(优)","type":3,"api":"csp_AppYs","searchable":1,"quickSearch":0,"filterable":1,"ext":"http://dilidili.la/api.php/app/"},
{"searchable":"1","quickSearch":"0","api":"csp_AppYs","filterable":"1","ext":"https://wp.kuanjv.com/xgapp.php/v2/","key":"csp_王牌影音","type":"3","name":"王牌影音(优)"},
{"key":"csp_appys_vip影院","name":"vip影院G((优))","type":3,"api":"csp_AppYs","searchable":1,"quickSearch":0,"filterable":1,"ext":"http://360yy.cn/api.php/app/"},
{"key":"白熊影院","name":"白熊影院","type":1,"api":"https://www.bxyy5.com/api.php/provide/vod/","playUrl":"","categories":[]},
{"key":"飞鱼影视","name":"飞鱼影视","type":1,"api":"https://app.feiyu5.com/api.php/provide/vod/","playUrl":"","categories":[]},
{"key":"小蜻蜓APP","name":"小蜻蜓APP","type":1,"api":"http://3ketv.com/api.php/provide/vod/","playUrl":"","categories":[]},
{"key":"csp_appys_六神","name":"六神(需切源)","type":3,"api":"csp_AppYs","searchable":1,"quickSearch":1,"filterable":1,"ext":"http://l.520say.cn/api.php/app/"},
{"key":"csp_appys_快云","name":"快云(需切源)","type":3,"api":"csp_AppYs","searchable":1,"quickSearch":0,"filterable":1,"ext":"https://k.ptygx.com/mogai_api.php/v1.vod"},
{"key":"csp_AppYsV2_菜鸟追剧","name":"菜鸟追剧(优)","type":3,"api":"csp_AppYsV2","searchable":1,"quickSearch":0,"filterable":1,"ext":"http://81.71.18.95:5555/mogai_api.php/v1.vod"},
{"key":"csp_AppYsV2_白嫖影视","name":"白嫖影视(优)","type":3,"api":"csp_AppYsV2","searchable":1,"quickSearch":0,"filterable":1,"ext":"http://zgjxdtg.cn/api.php/v1.vod"},
{"key":"csp_AppYsV2_独播社","name":"独播社(优)","type":3,"api":"csp_AppYsV2","searchable":1,"quickSearch":0,"filterable":1,"ext":"http://35ys.cc/api.php/v1.vod"},
{"key":"csp_AppYsV2_叮当影视","name":"叮当影视(优)","type":3,"api":"csp_AppYsV2","searchable":1,"quickSearch":0,"filterable":1,"ext":"https://tv.0573wl.com/api.php/v1.vod"},
{"key":"csp_AppYsV2_段友影视","name":"段友影视(优)","type":3,"api":"csp_AppYsV2","searchable":1,"quickSearch":0,"filterable":1,"ext":"http://121.204.249.135:4433/ruifenglb_api.php/v1.vod"},
{"key":"csp_AppYsV2_段友2影视","name":"段友2影视(优)","type":3,"api":"csp_AppYsV2","searchable":1,"quickSearch":0,"filterable":1,"ext":"https://shangjihuoke.com/api.php/tv.vod"},
{"key":"csp_AppYsV2_饭后电影","name":"饭后电影(优)","type":3,"api":"csp_AppYsV2","searchable":1,"quickSearch":0,"filterable":1,"ext":"http://baicai.summ.vip/api.php/v1.vod"},
{"key":"csp_AppYsV2_疯狂看","name":"疯狂看(优)","type":3,"api":"csp_AppYsV2","searchable":1,"quickSearch":0,"filterable":1,"ext":"http://app.fkkdy.vip/mogai_api.php/v1.vod"},
{"key":"csp_AppYsV2_粉象视界","name":"粉象视界(优)","type":3,"api":"csp_AppYsV2","searchable":1,"quickSearch":0,"filterable":1,"ext":"http://42.157.129.15:34444/lvdou_api.php/v1.vod"},
{"key":"csp_AppYsV2_虎猫视频","name":"虎猫视频(优)","type":3,"api":"csp_AppYsV2","searchable":1,"quickSearch":0,"filterable":1,"ext":"https://humaosp.com/mogai_api.php/v1.vod"},
{"key":"csp_AppYsV2_看看影视","name":"看看影视(优)","type":3,"api":"csp_AppYsV2","searchable":1,"quickSearch":0,"filterable":1,"ext":"http://kk.ccboke.top/ruifenglb_api.php/v1.vod"},
{"key":"csp_AppYsV2_猫咪TV","name":"猫咪TV(优)","type":3,"api":"csp_AppYsV2","searchable":1,"quickSearch":0,"filterable":1,"ext":"http://106.12.113.90:6565/api.php/iptv/vod/"},
{"key":"csp_AppYsV2_康耀影视","name":"康耀影视(优)","type":3,"api":"csp_AppYsV2","searchable":1,"quickSearch":0,"filterable":1,"ext":"http://124.222.126.23:999/mogai_api.php/v1.vod"},
{"key":"csp_AppYsV2_六把刀影院","name":"六把刀影院(优)","type":3,"api":"csp_AppYsV2","searchable":1,"quickSearch":0,"filterable":1,"ext":"https://pro.6bd.net/mogai_api.php/v1.vod"},
{"key":"csp_AppYsV2_绿箭影视","name":"绿箭影视(优)","type":3,"api":"csp_AppYsV2","searchable":1,"quickSearch":0,"filterable":1,"ext":"http://www.69ty.cc/mogai_api.php/v1.vod"},
{"key":"csp_AppYsV2_零刻影院","name":"零刻影院(优)","type":3,"api":"csp_AppYsV2","searchable":1,"quickSearch":0,"filterable":1,"ext":"https://ys.ling00.cn/api.php/v1.vod"},
{"key":"csp_AppYsV2_琅琊影视","name":"琅琊影视(优)","type":3,"api":"csp_AppYsV2","searchable":1,"quickSearch":0,"filterable":1,"ext":"http://fgyuu.top/lehailb_api.php/v1.vod"},
{"key":"csp_AppYsV2_蜜蜂影视","name":"蜜蜂影视(优)","type":3,"api":"csp_AppYsV2","searchable":1,"quickSearch":0,"filterable":1,"ext":"http://app.f8tp.com/lvdou_api.php/v1.vod"},
{"key":"csp_AppYsV2_麻瓜视频","name":"麻瓜视频(优)","type":3,"api":"csp_AppYsV2","searchable":1,"quickSearch":0,"filterable":1,"ext":"http://aliyun.k8aa.com/mogai_api.php/v1.vod"},
{"key":"csp_AppYs_美剧虫","name":"美剧虫(优)","type":3,"api":"csp_AppYs","searchable":1,"quickSearch":0,"filterable":1,"ext":"https://meijuchong.com/api.php/v1.vod"},
{"key":"csp_AppYsV2_奈非迷","name":"奈非迷(vpn)","type":3,"api":"csp_AppYsV2","searchable":1,"quickSearch":0,"filterable":1,"ext":"https://app.netflixmi.com/api.php/v1.vod"},
{"key":"csp_AppYsV2_暖光影视","name":"暖光影视(优)","type":3,"api":"csp_AppYsV2","searchable":1,"quickSearch":0,"filterable":1,"ext":"https://app.bl210.com/api.php/v1.vod"},
{"key":"csp_AppYsV2_念念影视","name":"念念影视(优)","type":3,"api":"csp_AppYsV2","searchable":1,"quickSearch":0,"filterable":1,"ext":"https://998.yuanmajs.cn/api.php/v1.vod"},
{"key":"csp_AppYsV2_柠柚影视","name":"柠柚影视(优)","type":3,"api":"csp_AppYsV2","searchable":1,"quickSearch":0,"filterable":1,"ext":"http://nu.e4tv.cn/lvdou_api.php/v1.vod"},
{"key":"csp_AppYsV2_思乐影视","name":"思乐影视(优)","type":3,"api":"csp_AppYsV2","searchable":1,"quickSearch":0,"filterable":1,"ext":"https://www.huandian.top/ruifenglb_api.php/v1.vod"},
{"key":"csp_AppYsV2_天诚影视","name":"天诚影视(优)","type":3,"api":"csp_AppYsV2","searchable":1,"quickSearch":0,"filterable":1,"ext":"http://tcspvip.cn/mogai_api.php/v1.vod"},
{"key":"csp_AppYsV2_天天影视","name":"天天影视(优)","type":3,"api":"csp_AppYsV2","searchable":1,"quickSearch":0,"filterable":1,"ext":"https://app.daishusc.com/api.php/v1.vod"},
{"key":"csp_AppYsV2_小白动漫","name":"小白动漫(优)","type":3,"api":"csp_AppYsV2","searchable":1,"quickSearch":0,"filterable":1,"ext":"http://121.62.60.222:20222/mogai_api.php/v1.vod"},
{"key":"csp_AppYsV2_兄弟影视","name":"兄弟影视(优)","type":3,"api":"csp_AppYsV2","searchable":1,"quickSearch":0,"filterable":1,"ext":"http://app.xdys.vip/mogai_api.php/v1.vod"},
{"key":"csp_AppYsV2_小极影视","name":"小极影视(优)","type":3,"api":"csp_AppYsV2","searchable":1,"quickSearch":0,"filterable":1,"ext":"http://app.8d8q.com/api.php/v1.vod"},
{"key":"csp_AppYsV2_雨果影视","name":"雨果影视(优)","type":3,"api":"csp_AppYsV2","searchable":1,"quickSearch":0,"filterable":1,"ext":"http://2.yhys63.com/api.php/v1.vod"},
{"key":"csp_AppYsV2_影视大全","name":"影视大全(优)","type":3,"api":"csp_AppYsV2","searchable":1,"quickSearch":0,"filterable":1,"ext":"https://app.okmedcos.com/api.php/v1.vod"},
{"key":"csp_AppYsV2_优视影视","name":"优视影视(优)","type":3,"api":"csp_AppYsV2","searchable":1,"quickSearch":0,"filterable":1,"ext":"http://app.ysys.asia/lvdou_api.php/v1.vod"},
{"key":"xpath","name":"↓↓↓XH源系列↓↓↓","type":3,"api":"csp_AppYs","searchable":1,"quickSearch":0,"filterable":1,"ext":"YY"},
{"key":"csp_xpath_1090","name":"1090（XPath)","type":3,"api":"csp_XPathMac","searchable":1,"quickSearch":1,"filterable":0,"ext":"https://oli-fa.coding.net/p/yue/d/yue/git/raw/main/1090.json"},
{"key":"csp_xpath_jiuyi","name":"九亿(XPath)","type":3,"api":"csp_XPath","searchable":1,"quickSearch":1,"filterable":1,"ext":"https://cdn.jsdelivr.net/gh/YuanHsing/OneClickRun@master/xpath/9eguoyu.json"},
{"key":"csp_xpath_lranc3","name":"天天影视(XP)","type":3,"api":"csp_XPathMacFilter","searchable":1,"quickSearch":1,"filterable":1,"ext":"https://mo-xiao.coding.net/p/c/d/c/git/raw/master/sub/xpath/lranc.json"},
{"key":"csp_xpath_jpys","name":"极品影视(XP)","type":3,"api":"csp_XPathMacFilter","searchable":1,"quickSearch":1,"filterable":1,"ext":"https://mo-xiao.coding.net/p/c/d/c/git/raw/master/sub/xpath/jpys.json"},
{"key":"csp_xpath_costv","name":"乌龟影院(广告)","type":3,"api":"csp_XPath","searchable":1,"quickSearch":1,"filterable":0,"ext":"https://wabc.ml/mao/jk/09tv.json"},
{"key":"csp_xpath_94sm","name":"久久影视(XP)","type":3,"api":"csp_XPath","searchable":1,"quickSearch":1,"filterable":0,"ext":"https://wabc.ml/mao/jk/jjkp.json"},
{"key":"csp_xpath_jzyy","name":"九州影院(XPM)","type":3,"api":"csp_XPathMacFilter","searchable":1,"quickSearch":1,"filterable":1,"ext":"https://wds.ecsxs.com/222187.json"},
{"key":"csp_xpath_zjw","name":"追剧网(XPath)","type":3,"api":"csp_XPath","searchable":1,"quickSearch":1,"filterable":1,"ext":"https://gitee.com/dongji2/mtv/raw/master/csp_XPath/zj883.json"},
{"key":"csp_xpath_if101","name":"泥巴TV(💎VPN)","type":3,"api":"csp_XPathMacFilter","searchable":1,"quickSearch":1,"filterable":1,"ext":"https://mo-xiao.coding.net/p/c/d/c/git/raw/master/sub/xpath/if101.json"},
{"key":"csp_xpath_极品VIP","name":"极品VIP(XH)","type":3,"api":"csp_XPath","searchable":0,"quickSearch":0,"filterable":1,"ext":"https://oli-fa.coding.net/p/yue/d/yue/git/raw/main/maoxp/jpysvip.json"},
{"key":"csp_xpath_影视在线","name":"影视在线(XH)","type":3,"api":"csp_XPath","searchable":1,"searchable":1,"filterable":1,"ext":"https://oli-fa.coding.net/p/yue/d/yue/git/raw/main/maoxp/zxzjtv.json"},
{"key":"csp_xpath_吾爱人人","name":"吾爱人人(XH)","type":3,"api":"csp_XPath","searchable":1,"searchable":1,"filterable":1,"ext":"https://oli-fa.coding.net/p/yue/d/yue/git/raw/main/maoxp/rr520.json"},
{"key":"csp_xpath_剧荒影院","name":"剧荒影院(XH)","type":3,"api":"csp_XPath","searchable":1,"searchable":1,"filterable":1,"ext":"https://oli-fa.coding.net/p/yue/d/yue/git/raw/main/maoxp/juhuang.json"},
{"key":"csp_xpath_dmntv","name":"灵狐影视(XH)","type":3,"api":"csp_XPathFilter","searchable":1,"quickSearch":1,"filterable":1,"ext":"https://mo-xiao.coding.net/p/c/d/c/git/raw/master/sub/xpath/dmntv.json"},
{"key":"csp_xpath_94sm","name":"94神马(XH)","type":3,"api":"csp_XPath","searchable":1,"quickSearch":1,"filterable":0,"ext":"https://mo-xiao.coding.net/p/c/d/c/git/raw/master/sub/xpath/94sm.json"},
{"key":"csp_xpath_dsxys","name":"大师兄(XPM)","type":3,"api":"csp_XPathMacFilter","searchable":1,"quickSearch":1,"filterable":1,"ext":"https://mo-xiao.coding.net/p/c/d/c/git/raw/master/sub/xpath/dsxys.json"},
{"key":"csp_xpath_789ba","name":"789看片(XPM)","type":3,"api":"csp_XPathRec","searchable":1,"quickSearch":1,"filterable":1,"ext":"https://mo-xiao.coding.net/p/c/d/c/git/raw/master/sub/xpath/789ba.json"},
{"key":"csp_xpath_dm84","name":"动漫巴士(XH)","type":3,"api":"csp_XPath","searchable":1,"quickSearch":1,"filterable":0,"ext":"https://mo-xiao.coding.net/p/c/d/c/git/raw/master/sub/xpath/dm84.json"},
{"key":"Gimy","name":"Gimy(XH)","type":3,"api":"csp_XPathMacFilter","searchable":1,"quickSearch":1,"filterable":1,"ext":"https://mo-xiao.coding.net/p/c/d/c/git/raw/master/sub/xpath/Gimy.json"},
{"key":"csp_xpath_lezhutv","name":"乐猪TV(XH)","type":3,"api":"csp_XPathMac","searchable":1,"quickSearch":1,"filterable":0,"ext":"https://mo-xiao.coding.net/p/c/d/c/git/raw/master/sub/xpath/lezhutv.json"},
{"key":"csp_xpath_meiju56","name":"美剧网(EXO)","type":3,"api":"csp_XPathMacFilter","searchable":1,"quickSearch":1,"filterable":1,"ext":"https://mo-xiao.coding.net/p/c/d/c/git/raw/master/sub/xpath/meiju56.json"},
{"key":"csp_xpath_lranc","name":"天天影视(XH)","type":3,"api":"csp_XPathMacFilter","searchable":1,"quickSearch":1,"filterable":1,"ext":"https://mo-xiao.coding.net/p/c/d/c/git/raw/master/sub/xpath/lranc.json"},
{"key":"csp_xpath_lranc2","name":"天天影视²(XH)","type":3,"api":"csp_XPathMac","searchable":0,"quickSearch":0,"filterable":0,"ext":"https://cdn.jsdelivr.net/gh/YuanHsing/OneClickRun@master/xpath/lranc.json"},
{"key":"csp_xpath_4kpianku","name":"4k片库网(XH)","type":3,"api":"csp_XPathMacFilter","searchable":1,"quickSearch":1,"filterable":1,"ext":"https://mo-xiao.coding.net/p/c/d/c/git/raw/master/sub/xpath/4kpianku.json"},
{"key":"csp_xpath_agefans","name":"Age动漫(XH)","type":3,"api":"csp_XPath","searchable":1,"quickSearch":1,"filterable":1,"ext":"https://mo-xiao.coding.net/p/c/d/c/git/raw/master/sub/xpath/agefans.json"},
{"key":"csp_xpath_saohuotv2","name":"骚火电影(XH)","type":3,"api":"csp_XPath","searchable":1,"quickSearch":1,"filterable":1,"ext":"https://mo-xiao.coding.net/p/c/d/c/git/raw/master/sub/xpath/saohuotv2.json"},
{"key":"csp_xpath_saohuotv²","name":"骚火电影²(XP)","type":3,"api":"csp_XPath","searchable":1,"quickSearch":1,"filterable":0,"ext":"https://cdn.jsdelivr.net/gh/YuanHsing/OneClickRun@master/xpath/saohuotv2.json"},
{"key":"csp_xpath_yinghua","name":"樱花动漫(XH)","type":3,"api":"csp_XPath","searchable":1,"quickSearch":0,"filterable":1,"ext":"https://oli-fa.coding.net/p/yue/d/yue/git/raw/main/mzip/yhdm.json"},
{"key":"n0ys_spider","name":"90影视(XP)","type":3,"api":"csp_N0ys","searchable":1,"quickSearch":1,"filterable":0,"ext":"https://litecucumber.coding.net/p/cat/d/config/git/raw/master/pub/ext/90ys.json"},
{"key":"csp_Buka","name":"真不卡(爬虫)","type":3,"api":"csp_Buka","searchable":1,"quickSearch":0,"filterable":1},
{"key":"csp_xpath_bukai21","name":"不卡²VIP(XP)","type":3,"api":"csp_XPath","searchable":1,"quickSearch":1,"filterable":1,"ext":"https://gitee.com/ay20121/APP/raw/master/XPath/bukai.json"},
{"key":"Aixixi","name":"爱西西(XPMac)","type":3,"api":"csp_XPathFilter","searchable":1,"quickSearch":1,"filterable":1,"ext":"https://cdn.jsdelivr.net/gh/YuanHsing/OneClickRun@master/xpath/Aixixi.json"},
{"key":"csp_xpath_fantuan","name":"饭团(XPath)","type":3,"api":"csp_XPath","searchable":1,"quickSearch":1,"filterable":0,"ext":"https://oli-fa.coding.net/p/yue/d/yue/git/raw/main/fantuan.json"},
{"key":"csp_xpath_yjtt","name":"粤语电影(XP)","type":3,"api":"csp_XPath","searchable":1,"quickSearch":0,"filterable":1,"ext":"https://oli-fa.coding.net/p/yue/d/yue/git/raw/main/mzip/yueju.json"},
{"key":"csp_xpath_6d","name":"六度(XP)","type":3,"api":"csp_XPath","searchable":1,"quickSearch":1,"filterable":1,"ext":"https://gitee.com/ay20121/APP/raw/master/XPath/liudu.json"},
{"key":"csp_xpath_wnvod","name":"万能影视(XP)","type":3,"api":"csp_XPathMac","searchable":1,"quickSearch":0,"filterable":1,"ext":"https://gitee.com/ay20121/APP/raw/master/XPath/wanneng.json"},
{"key":"csp_xpath_1090","name":"1090（XPath)","type":3,"api":"csp_XPathMac","searchable":1,"quickSearch":1,"filterable":0,"ext":"https://oli-fa.coding.net/p/yue/d/yue/git/raw/main/1090.json"},
{"key":"csp_xpath_mlys","name":"米来影视(蓝光)","type":3,"api":"csp_XPathMac","searchable":1,"quickSearch":0,"filterable":1,"ext":"https://gitee.com/ay20121/APP/raw/master/XPath/milai.json"},
{"key":"csp_xpath_Cokemv","name":"Cokemv(蓝光)","type":3,"api":"csp_Cokemv","searchable":1,"quickSearch":1,"filterable":1,"ext":"https://oli-fa.coding.net/p/yue/d/yue/git/raw/main/mzip/cokemv.json"},
{"key":"Djx","name":"瓜皮TV(XP)","type":3,"api":"csp_XPathFilter","searchable":1,"quickSearch":1,"filterable":1,"ext":"https://cdn.jsdelivr.net/gh/YuanHsing/OneClickRun@master/xpath/Djx.json"},
{"key":"csp_xpath_lezhu","name":"乐猪TV(蓝光)","type":3,"api":"csp_XPathMac","searchable":0,"quickSearch":0,"filterable":1,"ext":"https://oli-fa.coding.net/p/yue/d/yue/git/raw/main/mzip/lezhu.json"},
{"key":"csp_xpath_libvio","name":"LIBVIO(蓝光)","type":3,"api":"csp_XPath","searchable":1,"quickSearch":1,"filterable":0,"ext":"https://gitee.com/ay20121/APP/raw/master/XPath/libvio.json"},
{"key":"csp_xpath_subb","name":"素白白影视(XPath)","type":3,"api":"csp_XPath","searchable":1,"quickSearch":1,"filterable":1,"ext":"https://mo-xiao.coding.net/p/c/d/c/git/raw/master/sub/xpath/subaibai.json"},
{"key":"csp_AppYsV2_51视频","name":"51视频(普)","type":3,"api":"csp_AppYsV2","searchable":1,"quickSearch":0,"filterable":1,
"ext":"http://51shipin.cc/mogai_api.php/v1.vod"},
{"key":"csp_AppYsV2_CC影视","name":"CC影视(普)","type":3,"api":"csp_AppYsV2","searchable":1,"quickSearch":0,"filterable":1,"ext":"https://ccbug.cc/lvdou_api.php/v1.vod"},
{"key":"csp_AppYsV2_JDODO","name":"JDODO(普)","type":3,"api":"csp_AppYsV2","searchable":1,"quickSearch":0,"filterable":1,
"ext":"https://appys.jdodo.xyz/mogai_api.php/v1.vod"},
{"key":"csp_AppYsV2_nod影视","name":"nod影视(普)","type":3,"api":"csp_AppYsV2","searchable":1,"quickSearch":0,"filterable":1,"ext":"https://appys.jdodo.xyz/mogai_api.php/v1.vod"},
{"key":"csp_AppYsV2_QC影视","name":"QC影视(普)","type":3,"api":"csp_AppYsV2","searchable":1,"quickSearch":0,"filterable":1,"ext":"http://yss.kkysw.top/mogai_api.php/v1.vod"},
{"key":"csp_AppYsV2_U5影视","name":"U5影视(普)","type":3,"api":"csp_AppYsV2","searchable":1,"quickSearch":0,"filterable":1,"ext":"https://appx.uy07.com/api.php/v1.vod"},
{"key":"csp_AppYsV2_yoyo","name":"yoyo(普)","type":3,"api":"csp_AppYsV2","searchable":1,"quickSearch":0,"filterable":1,"ext":"http://jx.wnvod.net/ruifenglb_api.php/v1.vod"},
{"key":"csp_AppYsV2_阿里影视","name":"阿里影视(普)","type":3,"api":"csp_AppYsV2","searchable":1,"quickSearch":0,"filterable":1,"ext":"http://aliys.cn:90/api.php/v1.vod"},
{"key":"csp_AppYsV2_艾特影视","name":"艾特影视(普)","type":3,"api":"csp_AppYsV2","searchable":1,"quickSearch":0,"filterable":1,"ext":"https://www.aitee.cc/api.php/v1.vod"},
{"key":"csp_AppYsV2_嗷呜影院","name":"嗷呜影院(普)","type":3,"api":"csp_AppYsV2","searchable":1,"quickSearch":0,"filterable":1,"ext":"http://aowu.pro/api.php/v1.vod"},
{"key":"csp_AppYsV2_爱影视","name":"爱影视(普)","type":3,"api":"csp_AppYsV2","searchable":1,"quickSearch":0,"filterable":1,"ext":"https://www.hzlff.cn/api.php/v1.vod"},
{"key":"csp_AppYsV2_百淘影视","name":"百淘影视(普)","type":3,"api":"csp_AppYsV2","searchable":1,"quickSearch":0,"filterable":1,"ext":"https://www.idianying.com.cn/mogai_api.php/v1.vod"},
{"key":"csp_AppYsV2_百淘影视2","name":"百淘影视2(普)","type":3,"api":"csp_AppYsV2","searchable":1,"quickSearch":0,"filterable":1,"ext":"http://ys.58g8.com/lvdou_api.php/v1.vod"},
{"key":"csp_AppYsV2_比邻影视","name":"比邻影视(普)","type":3,"api":"csp_AppYsV2","searchable":1,"quickSearch":0,"filterable":1,"ext":"http://0hzy.cn:9990/mogai_api.php/v1.vod"},
{"key":"csp_AppYsV2_大威电影","name":"大威电影(普)","type":3,"api":"csp_AppYsV2","searchable":1,"quickSearch":0,"filterable":1,"ext":"http://vip.davdy.com/ruifenglb_api.php/v1.vod"},
{"key":"csp_AppYsV2_豆渣影视","name":"豆渣影视(普)","type":3,"api":"csp_AppYsV2","searchable":1,"quickSearch":0,"filterable":1,"ext":"http://douzhayss.cc/api.php/v1.vod"},
{"key":"csp_AppYsV2_寒枫视频","name":"寒枫视频(普)","type":3,"api":"csp_AppYsV2","searchable":1,"quickSearch":0,"filterable":1,"ext":"https://vip.shenyunwl.cn/mogai_api.php/v1.vod"},
{"key":"csp_AppYsV2_火星人","name":"火星人(普)","type":3,"api":"csp_AppYsV2","searchable":1,"quickSearch":0,"filterable":1,"ext":"https://www.huoxing9.com/mogai_api.php/v1.vod"},
{"key":"csp_AppYsV2_晗先森","name":"晗先森(普)","type":3,"api":"csp_AppYsV2","searchable":1,"quickSearch":0,"filterable":1,"ext":"https://hantv.top/api.php/v1.vod"},
{"key":"csp_AppYsV2_筋斗云","name":"筋斗云(普)","type":3,"api":"csp_AppYsV2","searchable":1,"quickSearch":0,"filterable":1,"ext":"https://tv.jindcloud.com/api.php/v1.vod"},
{"key":"csp_AppYsV2_聚合视频","name":"聚合视频(普)","type":3,"api":"csp_AppYsV2","searchable":1,"quickSearch":0,"filterable":1,"ext":"https://app.jhystv.com/mogai_api.php/v1.vod"},
{"key":"csp_AppYsV2_极酷视频","name":"极酷视频(普)","type":3,"api":"csp_AppYsV2","searchable":1,"quickSearch":0,"filterable":1,"ext":"https://jiku.vip/mogai_api.php/v1.vod"},
{"key":"csp_AppYsV2_极品视","name":"极品影视(普)","type":3,"api":"csp_AppYsV2","searchable":1,"quickSearch":0,"filterable":1,"ext":"http://app.yhzy.xyz/lvdou_api.php/v1.vod"},
{"key":"csp_AppYsV2_橘子影视","name":"橘子影视(普)","type":3,"api":"csp_AppYsV2","searchable":1,"quickSearch":0,"filterable":1,"ext":"http://jz.juzidy.vip/mogai_api.php/v1.vod"},
{"key":"csp_AppYsV2_看剧吧","name":"看剧吧(普)","type":3,"api":"csp_AppYsV2","searchable":1,"quickSearch":0,"filterable":1,"ext":"http://app.ishen520.com/api.php/v1.vod"},
{"key":"csp_AppYsV2_看看剧","name":"看看剧(普)","type":3,"api":"csp_AppYsV2","searchable":1,"quickSearch":0,"filterable":1,"ext":"https://www.kankanju.cn/api.php/v1.vod"},
{"key":"csp_AppYsV2_看看视频","name":"看看视频(普)","type":3,"api":"csp_AppYsV2","searchable":1,"quickSearch":0,"filterable":1,"ext":"http://888.ccboke.top/ruifenglb_api.php/v1.vod"},
{"key":"csp_AppYsV2_绿豆视频","name":"绿豆视频(普)","type":3,"api":"csp_AppYsV2","searchable":1,"quickSearch":0,"filterable":1,"ext":"https://v.lvdoui.cn/mogai_api.php/v1.vod"},
{"key":"csp_AppYsV2_蓝光视频","name":"蓝光视频(普)","type":3,"api":"csp_AppYsV2","searchable":1,"quickSearch":0,"filterable":1,"ext":"http://vip.91iqiyi.com/mogai_api.php/v1.vod"},
{"key":"csp_AppYsV2_乐看影视","name":"乐看影视(普)","type":3,"api":"csp_AppYsV2","searchable":1,"quickSearch":0,"filterable":1,
"ext":"http://z001.cye1688.com/api.php/v1.vod"},
{"key":"csp_AppYsV2_冷视TV","name":"冷视TV(普)","type":3,"api":"csp_AppYsV2","searchable":1,"quickSearch":0,"filterable":1,"ext":"https://len.tv/api.php/v1.vod"},
{"key":"csp_AppYsV2_乐云影视","name":"乐云影视(普)","type":3,"api":"csp_AppYsV2","searchable":1,"quickSearch":0,"filterable":1,
"ext":"https://www.leyun.tv/api.php/v1.vod"},
{"key":"csp_AppYsV2_免费影视","name":"免费影视(普)","type":3,"api":"csp_AppYsV2","searchable":1,"quickSearch":0,"filterable":1,"ext":"http://111.229.120.180:88/lvdou_api.php/v1.vod"},
{"key":"csp_AppYsV2_奇趣影视","name":"奇趣影视(普)","type":3,"api":"csp_AppYsV2","searchable":1,"quickSearch":0,"filterable":1,"ext":"https://app.qiqu.me/mogai_api.php/v1.vod"},
{"key":"csp_AppYsV2_速播影院","name":"速播影院(普)","type":3,"api":"csp_AppYsV2","searchable":1,"quickSearch":0,"filterable":1,"ext":"http://subolg.com/lvdou_api.php/v1.vod"},
{"key":"csp_AppYsV2_随风影视","name":"随风影视(普)","type":3,"api":"csp_AppYsV2","searchable":1,"quickSearch":0,"filterable":1,"ext":"http://app.ruchu.cloud/api.php/v1.vod"},
{"key":"csp_AppYsV2_三日影院","name":"三日影院(普)","type":3,"api":"csp_AppYsV2","searchable":1,"quickSearch":0,"filterable":1,"ext":"https://www.3ri.net/api.php/v1.vod"},
{"key":"csp_AppYsV2_淘剧社","name":"淘剧社(普)","type":3,"api":"csp_AppYsV2","searchable":1,"quickSearch":0,"filterable":1,"ext":"https://app.shuhai99.com/api.php/v1.vod"},
{"key":"csp_AppYsV2_兔子窝","name":"兔子窝(普)","type":3,"api":"csp_AppYsV2","searchable":1,"quickSearch":0,"filterable":1,"ext":"http://cj.huimaojia.com:12345/mogai_api.php/v1.vod"},
{"key":"csp_AppYsV2_我爱跟剧","name":"我爱跟剧(普)","type":3,"api":"csp_AppYsV2","searchable":1,"quickSearch":0,"filterable":1,"ext":"https://www.genmov.com/mogai_api.php/v1.vod"},
{"key":"csp_AppYsV2_吾爱影视","name":"吾爱影视(普)","type":3,"api":"csp_AppYsV2","searchable":1,"quickSearch":0,"filterable":1,"ext":"http://app.5lp.net/api.php/v1.vod"},
{"key":"csp_AppYsV2_蜗牛动漫","name":"蜗牛动漫(普)","type":3,"api":"csp_AppYsV2","searchable":1,"quickSearch":0,"filterable":1,"ext":"http://woniudm.woniu.cyou:20000/mogai_api.php/v1.vod"},
{"key":"csp_AppYsV2_寻常影视","name":"寻常影视(普)","type":3,"api":"csp_AppYsV2","searchable":1,"quickSearch":0,"filterable":1,"ext":"http://tv.91ymz.cn/api.php/v1.vod"},
{"key":"csp_AppYsV2_熊猫动漫","name":"熊猫动漫(普)","type":3,"api":"csp_AppYsV2","searchable":1,"quickSearch":0,"filterable":1,"ext":"http://dongman.k8aa.com/mogai_api.php/v1.vod"},
{"key":"csp_AppYsV2_熊猫视频","name":"熊猫视频(普)","type":3,"api":"csp_AppYsV2","searchable":1,"quickSearch":0,"filterable":1,"ext":"http://anegh.com/lvdou_api.php/v1.vod"},
{"key":"csp_AppYsV2_小鸟动漫","name":"小鸟动漫(普)","type":3,"api":"csp_AppYsV2","searchable":1,"quickSearch":0,"filterable":1,"ext":"http://xydm.baicai.buzz/mogai_api.php/v1.vod"},
{"key":"csp_AppYsV2_小蜻蜓","name":"小蜻蜓(普)","type":3,"api":"csp_AppYsV2","searchable":1,"quickSearch":0,"filterable":1,"ext":"http://3ketv.com/mogai_api.php/v1.vod"},
{"key":"csp_AppYsV2_星球视频","name":"星球视频(普)","type":3,"api":"csp_AppYsV2","searchable":1,"quickSearch":0,"filterable":1,"ext":"http://119.29.121.48:8088/api.php/v1.vod"},
{"key":"csp_AppYsV2_玺心影视","name":"玺心影视(普)","type":3,"api":"csp_AppYsV2","searchable":1,"quickSearch":0,"filterable":1,"ext":"https://tv.arbd.cn/api.php/v1.vod"},
{"key":"csp_AppYsV2_源来影视","name":"源来影视(普)","type":3,"api":"csp_AppYsV2","searchable":1,"quickSearch":0,"filterable":1,"ext":"http://ld.ylaiys.com/lvdou_api.php/v1.vod"},
{"key":"csp_AppYsV2_云梦影视","name":"云梦影视(普)","type":3,"api":"csp_AppYsV2","searchable":1,"quickSearch":0,"filterable":1,"ext":"https://yun.yunl.xyz/mogai_api.php/v1.vod"},
{"key":"csp_AppYsV2_影视大全","name":"影视大全(普)","type":3,"api":"csp_AppYsV2","searchable":1,"quickSearch":0,"filterable":1,"ext":"https://xc.xixi2yy.xyz/mogai_api.php/v1.vod"},
{"key":"csp_AppYsV2_渔渔影视","name":"渔渔影视(普)","type":3,"api":"csp_AppYsV2","searchable":1,"quickSearch":0,"filterable":1,"ext":"http://luobo.yugenye.site/api.php/v1.vod"},
{"key":"csp_AppYsV2_追剧吧","name":"追剧吧(普)","type":3,"api":"csp_AppYsV2","searchable":1,"quickSearch":0,"filterable":1,"ext":"http://wtv.fit/api.php/v1.vod"},
{"key":"csp_AppYsV2_追剧猫","name":"追剧猫(普)","type":3,"api":"csp_AppYsV2","searchable":1,"quickSearch":0,"filterable":1,"ext":"http://tv.kmtvb.com/api.php/v1.vod"},
{"key":"csp_AppYsV2_猪猪影院","name":"猪猪影院(普)","type":3,"api":"csp_AppYsV2","searchable":1,"quickSearch":0,"filterable":1,"ext":"http://app.2zdyy.com/api.php/v1.vod"},
{"key":"csp_AppYsV2_2号币","name":"2号币(IPTV)","type":3,"api":"csp_AppYsV2","searchable":1,"quickSearch":0,"filterable":1,"ext":"http://phoebe.cf/api.php/iptv/vod/"},
{"key":"csp_AppYsV2_CV影视","name":"CV影视(IPTV)","type":3,"api":"csp_AppYsV2","searchable":1,"quickSearch":0,"filterable":1,"ext":"http://www.cccvvv.top/api.php/iptv/vod/"},
{"key":"csp_AppYsV2_爱西西TV","name":"爱西西TV(IPTV)","type":3,"api":"csp_AppYsV2","searchable":1,"quickSearch":0,"filterable":1,"ext":"http://tv2.aixixi.vip/api.php/iptv/vod/"},
{"key":"csp_AppYsV2_刺桐影视","name":"刺桐影视(IPTV)","type":3,"api":"csp_AppYsV2","searchable":1,"quickSearch":0,"filterable":1,"ext":"http://tv.cttv.vip/api.php/iptv/vod/"},
{"key":"csp_AppYsV2_叮当TV","name":"叮当TV(IPTV)","type":3,"api":"csp_AppYsV2","searchable":1,"quickSearch":0,"filterable":1,"ext":"http://tv.hyddys.top/api.php/iptv/vod/"},
{"key":"csp_AppYsV2_嘀哩嘀哩","name":"嘀哩嘀哩(IPTV)","type":3,"api":"csp_AppYsV2","searchable":1,"quickSearch":0,"filterable":1,"ext":"https://api.diliktv.xyz/api.php/Chengcheng/vod/"},
{"key":"csp_AppYsV2_二货影视","name":"二货影视(IPTV)","type":3,"api":"csp_AppYsV2","searchable":1,"quickSearch":0,"filterable":1,"ext":"http://d.zjj.life:88/mv/api.php/Chengcheng/vod/"},
{"key":"csp_AppYsV2_非凡影院","name":"非凡影院(IPTV)","type":3,"api":"csp_AppYsV2","searchable":1,"quickSearch":0,"filterable":1,"ext":"http://cms.feifan12.xyz/api.php/iptv/vod/"},
{"key":"csp_AppYsV2_飞扬TV","name":"飞扬TV(IPTV)","type":3,"api":"csp_AppYsV2","searchable":1,"quickSearch":0,"filterable":1,"ext":"http://diancj.zhenfy.cn/api.php/Chengcheng/vod/"},
{"key":"csp_AppYsV2_嘿荼锋","name":"嘿荼锋(IPTV)","type":3,"api":"csp_AppYsV2","searchable":1,"quickSearch":0,"filterable":1,"ext":"http://tv.hfys8.vip/api.php/Sntv/vod/"},
{"key":"csp_AppYsV2_黑龙影视","name":"黑龙影视(IPTV)","type":3,"api":"csp_AppYsV2","searchable":1,"quickSearch":0,"filterable":1,"ext":"http://vip.ji-ding-he.site/api.php/iptv/vod/"},
{"key":"csp_AppYsV2_聚多影视","name":"聚多影视(IPTV)","type":3,"api":"csp_AppYsV2","searchable":1,"quickSearch":0,"filterable":1,"ext":"http://jdyy.weetai.cn/api.php/iptv/vod/"},
{"key":"csp_AppYsV2_极品影院","name":"极品影院(IPTV)","type":3,"api":"csp_AppYsV2","searchable":1,"quickSearch":0,"filterable":1,"ext":"http://293x.yhzy.xyz/mv/api.php/Chengcheng/vod/"},
{"key":"csp_AppYsV2_流星雨","name":"流星雨(IPTV)","type":3,"api":"csp_AppYsV2","searchable":1,"quickSearch":0,"filterable":1,"ext":"http://nn.lxyyy.xyz:8/c/api.php/WAiLaowang/vod/"},
{"key":"csp_AppYsV2_蜜果TV","name":"蜜果TV(IPTV)","type":3,"api":"csp_AppYsV2","searchable":1,"quickSearch":0,"filterable":1,"ext":"http://vv.miguotv.net/m/api.php/Chengcheng/vod/"},
{"key":"csp_AppYsV2_米奇TV","name":"米奇TV(IPTV)","type":3,"api":"csp_AppYsV2","searchable":1,"quickSearch":0,"filterable":1,"ext":"http://www.s6ep3.top/api.php/iptv/vod/"},
{"key":"csp_AppYsV2_虾皮视频","name":"虾皮视频(IPTV)","type":3,"api":"csp_AppYsV2","searchable":1,"quickSearch":0,"filterable":1,"ext":"http://tv.cmt8.xyz/api.php/iptv/vod/"},
{"key":"csp_AppYsV2_小极TV","name":"小极TV(IPTV)","type":3,"api":"csp_AppYsV2","searchable":1,"quickSearch":0,"filterable":1,"ext":"http://api.8d8q.com/mmv/api.php/Chengcheng/vod/"},
{"key":"csp_appys_855","name":"诺丽影视(普)","type":3,"api":"csp_AppYs","searchable":1,"quickSearch":0,"filterable":1,"ext":"http://106.12.113.90:6565/api.php/iptv/vod/"},
{"key":"csp_appys_爱尚影视","name":"爱尚影视(需切源)","type":3,"api":"csp_AppYs","searchable":1,"quickSearch":1,"filterable":1,"ext":"https://aiyy.tv/api.php/app/"},
{"searchable":"1","quickSearch":"0","api":"csp_AppYs","filterable":"1","ext":"https://myaixixi.com/xgapp.php/v1/","key":"csp_优选_爱嘻嘻TV","type":"3","name":"爱嘻嘻(部分可用)"},
{"key":"采集源","name":"↓↓↓采集源系列↓↓↓","type":3,"api":"csp_AppYs","searchable":1,"quickSearch":0,"filterable":1,"ext":"YY"},
{"key":"卧龙","name":"卧龙切片G","type":0,"api":"https://collect.wolongzyw.com/api.php/provide/vod/at/xml","playUrl":"","searchable":1,"quickSearch":1,"categories":["动作片","喜剧片","爱情片","科幻片","恐怖片","剧情片","战争片","家庭片","古装片","历史片","悬疑片","犯罪片","国产剧","香港剧","韩国剧","欧美剧","台湾剧","日本剧","海外剧","记录片","短片","动画片","泰国剧","惊悚片","国产动漫","欧美动漫","日本动漫","港台综艺","韩国综艺","大陆综艺","欧美综艺","歌舞系列"]},
{"key":"lehoo资源","name":"lehoo资源","type":0,"api":"https://www.lehootv.com/api.php/provide/vod/at/xml"},
{"key":"8k影视{源码}","name":"8k影视","type":1,"api":"http://vip.8kvod.com:888/8kvodapilgxc.php/provide/vod/","playUrl":"","searchable":1,"quickSearch":0,"filterable":1,"categories":[]},
{"key":"39影视","name":"39影视","type":0,"api":"https://www.39kan.com/api.php/provide/vod/at/xml/","playUrl":"","categories":[]},
{"key":"嗨哆咪影视","name":"嗨哆咪影视","type":1,"api":"http://hdmys1.com/api.php/provide/vod/","playUrl":"","categories":[]},
{"key":"随便看电影","name":"随便看电影","type":0,"api":"https://www.sbkdy.com/inc/api.php","playUrl":"","categories":[]},
{"key":"m3u8资源","name":"YH资源(含ll)","type":0,"api":"https://m3u8.apiyhzy.com/api.php/provide/vod/at/xml"},
{"key":"酷点资源","name":"酷点资源","type":1,"api":"https://kudian8.com/api.php/provide/vod?ac=list","playUrl":"","categories":[]},
{"key":"BL视频","name":"BL视频","type":1,"api":"https://bljiex.com/api.php/provide/vod/","playUrl":"","categories":[]},
{"key":"速更资源","name":"速更资源","type":1,"api":"https://sugengzy.cn/api.php/provide/vod/","playUrl":"","searchable":1,"quickSearch":1,"categories":[]},
{"key":"舒渡影视","name":"舒渡影视","type":1,"api":"http://www.lovctv.com/api.php/provide/vod/","playUrl":"","searchable":1,"quickSearch":1,"categories":[]},
{"key":"网民电影","name":"网民电影","type":1,"api":"https://www.prinevillesda.org/api.php/provide/vod/","playUrl":"","searchable":1,"quickSearch":1,"categories":[]},
{"key":"快看客栈","name":"快看客栈","type":1,"api":"https://www.vp1127.com/api.php/provide/vod/","playUrl":"","searchable":1,"quickSearch":1,"categories":[]},
{"key":"爪可可","name":"爪可可","type":0,"api":"https://www.zwcoco.com/api.php/provide/vod/at/xml"},
{"key":"爱蛋","name":"爱蛋","type":0,"api":"https://lovedan.net/api.php/provide/vod/at/xml"},
{"key":"若欣","name":"若欣","type":0,"api":"http://rxiptv.ruoxinew.com/api.php/provide/vod/at/xml"},
{"key":"88资源","name":"88资源G","type":0,"api":"http://www.88zyw.net/inc/api.php"},
{"key":"快播采集","name":"快播采集G","type":0,"api":"http://www.kuaibocaiji.com/api.php/provide/vod/from/kbm3u8/at/xml"},
{"key":"乐多资源2","name":"乐多资源2","type":0,"api":"http://api.leduosj.com/inc/api.php","playUrl":"https://ldy.jx.cn/wp-api/ifr.php?vid=","categories":[]},
{"key":"橙子采集","name":"橙子采集G","type":1,"api":"http://zhiyutv.xyz/api.php/provide/vod/","playUrl":""},
{"key":"番茄资2源","name":"番茄资源G","type":1,"api":"http://api.fqzy.cc/api.php/provide/vod/","playUrl":"https://jx.fqzy.cc/jx.php?url="},
{"key":"kaola","name":"考拉G(自换源)","type":1,"api":"https://ikaola.tv/api.php/provide/vod/","playUrl":""},
{"key":"每天看看","name":"每天看看G","type":1,"api":"http://47.113.126.237:1234/api.php/provide/vod/","playUrl":"http://47.113.126.237:1234/jiexi/kankanNew3.php/?url="},
{"key":"快播资源","name":"快播资源(有G)","type":0,"api":"http://www.kuaibozy.com/api.php/provide/vod/at/xml/","playUrl":"","categories":["国产剧","港台剧","日韩剧","欧美剧","泰剧","综艺","动漫","动作片","喜剧片","爱情片","科幻片","恐怖片","剧情片","战争片","纪录片"]},
{"key":"八戒采集","name":"八戒采集","type":0,"api":"http://cj.bajiecaiji.com/inc/bjm3u8.php"},
{"key":"天空资源","name":"天空G(采集⁷)","type":1,"api":"http://api.tiankongapi.com/api.php/provide/vod/","playUrl":"","categories":["动作片","爱情片","科幻片","恐怖片","剧情片","战争片","喜剧片","动画片","犯罪片","国产剧","动漫","综艺"]},
{"key":"无双","name":"无双影视G(采集⁹)","type":1,"api":"https://wsdy.top/api.php/provide/vod/","playUrl":""},
{"key":"飘花电影","name":"飘花电影","type":1,"api":"http://www.zzrhgg.com/api.php/provide/vod/","playUrl":"","categories":[]},
{"key":"BDXING","name":"北斗资源²G","type":1,"api":"https://m3u8.bdxapi.com/api.php/provide/vod/?ac=list","playUrl":"https://player.bdxzym3u8.com/dplayer/?url="},
{"key":"无尽资源","name":"无尽资源G","type":1,"api":"https://wuzy9.com/api.php/provide/vod/","playUrl":"","categories":[]},
{"key":"BD云","name":"百度云(R)","type":1,"api":"https://api.apibdzy.com/api.php/provide/vod/?ac=list","playUrl":"https://jx.jxbdzyw.com/m3u8/?url="},
{"key":"百度资源","name":"百度资源R","type":1,"api":"https://api.apibdzy.com/api.php/provide/vod?ac=list","playUrl":"","categories":[]},
{"key":"bilibili","name":"B站(采集)","type":0,"searchable":1,"quickSearch":1,"filterable":1,"api":"http://zy.yilans.net:8090/api.php/provide/vod/from/bilibili/at/xml","playUrl":""},
{"key":"艾思cj","name":"艾思采集G","type":1,"api":"https://www.aitee.cc/api.php/provide/vod/?ac=list","categories":["电影","连续剧","综艺","动漫"]},
{"key":"片库","name":"片库资源","type":1,"api":"https://pianku.wang/api.php/provide/vod/","playUrl":"","searchable":1,"quickSearch":1,"categories":[]},
{"key":"月光影视","name":"月光影视","type":0,"api":"https://www.juhaokan.cc/api.php/provide/vod/at/xml"},
{"key":"6U资源","name":"6U资源","type":1,"api":"http://zy.ataoju.com/inc/apijson_vod.php","playUrl":"","searchable":1,"quickSearch":0,"categories":[]},
{"key":"乐多资源","name":"乐多资源","type":0,"api":"http://cj.leduocaiji.com/inc/seacmsapi.php","playUrl":"https://ldy.jx.cn/wp-api/ifr.php?vid="},
{"key":"趣看","name":"趣看(需切源)","type":1,"api":"http://qkmp4.cn/api.php/provide/vod/","playUrl":"","searchable":1,"quickSearch":1,"categories":[]}

],
"lives":[
{
"group":"redirect",
"channels":[
{
"name":"redirect",
"urls":[
"https://wds.ecsxs.com/221247.json"
]
}
]
}
],
"parses":[
{"name":"聚合解析","type":3,"url":"Demo"},
{"name":"优选解析","type":2,"url":"Parallel"},
{"name":"解析轮询","type":2,"url":"Sequence"},
{"name":"群友尊享¹","type":1,"url":"http://yaluan.520say.cn/home/api?type=ys&uid=176547&key=fjkmorszCIKMNTUV12&url="},
{"name":"群友尊享²","type":1,"url":"https://www.s9d.cn/home/api?type=ys&uid=697701&key=degkqtzBDEIJMVZ378&url="},
{"name":"群友尊享³","type":1,"url":"https://jx.xl6.top/cache.php?url="},
{"name":"群友尊享⁴","type":1,"url":"https://apis.jxcxin.cn/api/jx?url="},
{"name":"群友尊享⁵","type":1,"url":"https://js.xl6.top/home/api?type=ys&uid=174957&key=efklpsxyzCFJMQXYZ5&url="},
{"name":"群友尊享⁶","type":1,"url":"http://yaluan.520say.cn/home/api?type=ys&uid=65588&key=cdklmrABEHIJLOV078&url=","ext":{"flag":["CL4K","饭后独播","芒果视频","youku","rx","ltnb","优酷","qiyi","爱奇艺","奇艺","renrenmi","qq","腾讯","腾讯视频","letv","乐视"]}},
{"name":"VIP","type":1,"url":"http://42.157.128.85:880/analysis/json/?uid=2233&my=fghklvwAFHLSTVZ348&url="},
{"name":"灯塔","type":1,"url":"http://dt.hwh.ink/home/api?type=ys&uid=1297351&key=acdfklopqvwyKLOT39&url="},
{"name":"KY","type":1,"url":"http://175.178.109.153:615//api/?key=IqnCJ3OxBDcJu0DyiI&url="},
{"name":"800","type":1,"url":"http://ts.yjhan.com:8090/api/?key=43yVlZDaJg7dYH3DZi&url="},
{"name":"思古","type":1,"url":"http://www.sigu.tv/api/?key=XhXeY0CEElTqbd9i4m&url="},
{"name":"蓝光","type":1,"url":"https://jb.vjiangbei.com/home/api?type=ys&uid=2219260&key=hlmnpqswHIKQRSX146&url=","ext":{"flag":["youku","xigua","优酷","qiyi","爱奇艺","奇艺","renrenmi","qq","腾讯","letv","乐视"]}},
{"name":"蓝光¹","type":1,"url":"https://api.m3u8.tv:5678/home/api?type=ys&uid=1931000&key=gktuvyzABEORSYZ135&url="},
{"name":"蓝光⁶","type":1,"url":"http://dy.zhe50.net/home/api?type=ys&uid=107451&key=bgjknpuwxzAHMY1369&url="},
{"name":"毒舌","type":1,"url":"https://jf.96ym.cn/api/?key=RTazTVc0LspMMisdJ1&url="},
{"name":"8521","type":1,"url":"https://svip.spchat.top/api/?key=0XBkWjZGZ4KDrlZkHS&url="},
{"name":"0808","type":1,"url":"http://106.75.184.231:4433/1111gb1/?url="},
{"name":"0381","type":1,"url":"http://www.sigu.tv/api/?key=XhXeY0CEElTqbd9i4m&url="},
{"name":"9130","type":1,"url":"https://kuba.renrenmi.cc:2266/api/?key=DGdx8FI1Pp9LlOnLz0&url="},
{"name":"牛牛","type":1,"url":"https://yun.nbjx.vip:4399/json/?uid=11&tokey=jlmopBGIQRSTZ16789&url="},
{"name":"30ys","type":1,"url":"https://jx.300ys.xyz/json/jh.php/?url=","ext":{"flag":["youku","优酷","qiyi","爱奇艺","奇艺","renrenmi","qq","腾讯","letv","乐视"]}},
{"name":"LT","type":1,"url":"https://ltjx.jeeves.vip/home/api?type=ys&uid=1873803&key=cefkprtFGKLQW04679&url=","ext":{"flag":["ltnb"]}},
{"name":"蓝光⁶","type":1,"url":"http://dy.zhe50.net/home/api?type=ys&uid=107451&key=bgjknpuwxzAHMY1369&url="},
{"name":"0451","type":1,"url":"https://js.xl6.top/home/api?type=ys&uid=165299&key=bcjkostuyzAHJLNUV0&url="},
{"name":"885521","type":1,"url":"http://json.tcspvip.com/api/?key=EStMUxxCWm4TBdXLiV&url="},
{"name":"JB","type":1,"url":"http://json.hulanap.com/home/api?type=ys&uid=4366741308&key=ahopuvwBCEHIR01289&url="},
{"name":"诺讯","type":1,"url":"https://m.4321s.cc/home/api?type=ys&uid=474913&key=cdijqruvxyCGHUZ069&url="},
{"name":"灯塔","type":1,"url":"http://dt.hwh.ink/home/api?type=ys&uid=1128772&key=fgjkpwzABCDFLNOP13&url="},
{"name":"JB8","type":1,"url":"https://jb.vjiangbei.com/home/api?type=ys&uid=2534396&key=ejovwzABDKTUXY1357&url="},
{"name":"qilin","type":1,"url":"https://api.qilin.best/home/api?type=ys&uid=2343358&key=cekpsuvxJKNOV34789&url="},
{"name":"lgy7","type":1,"url":"http://111.67.204.86:52/home/api?type=ys&uid=159479&key=bnpBCDJMOVZ0123469&url="},
{"name":"KK影院","type":1,"url":"http://47.100.138.210:91/home/api?type=ys&uid=7593435&key=ehortuyAHMNQTWX457&url=","ext":{"flag":["qiyi","爱奇艺","奇艺","qq","腾讯","youku","优酷","pptv","PPTV","letv","乐视","mgtv","芒果"]}},
{"name":"rrlt","type":1,"url":"https://ltjx.jeeves.vip/home/api?type=ys&uid=1427917&key=bdfilpqsxzDEGHRW04&url="},
{"name":"rx","type":1,"url":"https://json.juhevideo.cn/home/api?type=ys&uid=279324&key=bhjoprEGHIJKNOPUV6&url="},
{"name":"rx²","type":1,"url":"http://h.taoge1.com/api/?key=0Pn6dX648Oa77u8dCi&url="},
{"name":"pty","type":1,"url":"https://zajx.ptygx.com/?url="},
{"name":"rx","type":1,"url":"https://www.ysys.asia/Mao.php?url="},
{"name":"解析¹","type":1,"url":"https://svip.msdv.cn/api/?key=YAUhZt7TmZg2BUTQC2&url="},
{"name":"解析⁴","type":1,"url":"https://xrjson.qd234.cn/home/api?type=ys&uid=225770&key=dfghmnoqvADEJKM346&url="},
{"name":"解析⁵","type":1,"url":"http://42.157.128.85:880/analysis/json/?uid=1735&my=gipqrsADGIJKNOTWX7&url="},
{"name":"解析⁶","type":1,"url":"http://cygc.xyz:88/api/?key=MhH2xWPjH3ZX2n3Ddv&url="},
{"name":"解析⁷","type":1,"url":"http://www.hwh.ink/home/api?type=ys&uid=319442&key=cfhmnvxyHKLMRSXY29&url="},
{"name":"毒舌⁸","type":1,"url":"http://jf.96ym.cn/home/api?type=ys&uid=203869&key=adfghqyAHIKNRWZ268&url="},
{"name":"解析⁹","type":1,"url":"http://www.zjds.cc/jx/api.php?url="},
{"name":"解析ˣ","type":1,"url":"http://www.kmys.vip/json/?url="},
{"name":"解析⁰","type":1,"url":"https://api.m3u8.tv:5678/home/api?type=ys&uid=7631191&key=cdemqsxFGKLNRVXYZ9&url="},
{"name":"爱酷影视","type":1,"url":"https://jb.vjiangbei.com/home/api?type=ys&uid=646808&key=gklpqrtwyDIJKMP467&url=","ext":{"flag":["qq","腾讯","letv","乐视","youku","优酷"]}},
{"name":"悦解析5","type":1,"url":"http://120.77.94.20/jx?url="},
{"name":"悦解析7","type":1,"url":"http://ts.yjhan.com:8090/api/?key=1BVRnXqJv5WOma49ti&url="},
{"name":"悦解析8","type":1,"url":"https://api.m3u8.tv:5678/home/api?type=ys&uid=1931000&key=gktuvyzABEORSYZ135&url="},
{"name":"七智","type":1,"url":"https://api.exeyz.cc/api/Json.php?url="},
{"name":"1080","type":1,"url":"https://languangyingshiziyuan.1080zy.top/longteng.php/?url=","ext":{"flag":["ltnb"]}},
{"name":"段友影视","type":1,"url":"http://ts.yjhan.com:8090/api/?key=DSQFgXdmj9xkDyiXdr&url=","ext":{"flag":["CL4K"]}},
{"name":"白嫖影视","type":1,"url":"http://ts.yjhan.com:8090/api/?key=Y4GefMCIQJz23mc06R&url=","ext":{"flag":["CL4K"]}},
{"name":"爱看美剧","type":1,"url":"http://ts.yjhan.com:8090/api/?key=P6XfOl9hD3LpqOFdRJ&url=","ext":{"flag":["CL4K"]}},
{"name":"天诚影视1","type":1,"url":"https://yun.nbjx.vip:4399/json/?uid=6&tokey=befhmoqFHMOQRTUXZ7&url=","ext":{"flag":["qiyi","爱奇艺","奇艺"]}},
{"name":"琳琅影院","type":1,"url":"http://ts.yjhan.com:8090/api/?key=njU0bfiF05eODFfktq&url=","ext":{"flag":["CL4K"]}},
{"name":"饭后电影","type":1,"url":"http://ts.yjhan.com:8090/api/?key=yNSLsBLOaUkKp2kZ6i&url=","ext":{"flag":["CL4K"]}},
{"name":"益达影院1","type":1,"url":"https://ltnb.jeeves.vip/home/api?type=ys&uid=2509623&key=glnpyADKLMNOTU0249&url=","ext":{"flag":["ltnb","ziqie"]}},
{"name":"蜜蜂影视4","type":1,"url":"https://xrjson.qd234.cn/home/api?type=ys&uid=366750&key=afgrstxFGHJKLMQVX1&url=","ext":{"flag":["ltnb","xueren","renrenmi"]}},
{"name":"小白动漫","type":1,"url":"http://121.62.60.222:1314/lt.php?url=","ext":{"flag":["ltnb","longteng"]}},
{"name":"思乐影视1","type":1,"url":"https://jb.vjiangbei.com/home/api?type=ys&uid=2534396&key=ejovwzABDKTUXY1357&url=","ext":{"flag":["mgtv","芒果","qq","腾讯","qiyi","爱奇艺","奇艺","youku","优酷"]}},
{"name":"琅琊影视","type":1,"url":"https://ltjx.jeeves.vip/home/api?type=ys&uid=1589472&key=aehjpzAHILOPQRU456&url=","ext":{"flag":["ltnb"]}},
{"name":"零刻影院","type":1,"url":"http://ys.ling00.cn/json/?url=","ext":{"flag":["CL4K"]}},
{"name":"DC影视2","type":1,"url":"https://ltjx.jeeves.vip/home/api?type=ys&uid=461939&key=adfgilmotCEPRSXY06&url=","ext":{"flag":["ltnb"]}},
{"name":"抹茶猪","type":1,"url":"https://ltjx.jeeves.vip/home/api?type=ys&uid=1136443&key=bhijopryzBJKLMSUX8&url=","ext":{"flag":["ltnb"]}},
{"name":"思乐影视","type":1,"url":"https://ltjx.jeeves.vip/home/api?type=ys&uid=1427917&key=bdfilpqsxzDEGHRW04&url=","ext":{"flag":["ltnb"]}},
{"name":"段友影视1","type":1,"url":"https://api.m3u8.tv:5678/home/api?type=ys&uid=998036&key=afhlnuvzDJLMOX3689&url=","ext":{"flag":["qq","腾讯"]}},
{"name":"1080","type":1,"url":"https://languangyingshiziyuan.1080zy.top/longteng.php/?url=","ext":{"flag":["ltnb"]}},
{"name":"绿箭影视","type":1,"url":"https://ltjx.jeeves.vip/home/api?type=ys&uid=803828&key=cdefimpzDQTUW23679&url=","ext":{"flag":["ltnb"]}},
{"name":"毒舌6","type":1,"url":"https://jf.96ym.cn/api/?key=13FXcA46Nzg4QeFHbq&url=","ext":{"flag":["ziqie","ltnb","youku","优酷","qiyi","爱奇艺","奇艺","qq","腾讯","letv","乐视"]}},
{"name":"虎猫视频","type":1,"url":"https://humaosp.com/json.php?url=","ext":{"flag":["qq","腾讯"]}},
{"name":"南府追剧1","type":1,"url":"https://vvip.muxvip.com:8866/api/?key=xJvC19KWkxoyQO71hk&url=","ext":{"flag":["muxm3u8"]}},
{"name":"麻瓜视频","type":1,"url":"https://kuba.renrenmi.cc:2266/api/?key=a2bSwx5iAGx1g2qn4h&url=","ext":{"flag":["renrenmi"]}},
{"name":"南府影视","type":1,"url":"https://vvip.muxvip.com:8866/api/?key=xVIWNjOvnxgmvrPgXO&url=","ext":{"flag":["muxm3u8"]}},
{"name":"天诚影视","type":1,"url":"http://jf.tcspvip.com:246/api/?key=Yz4WsVTuG4PaM07i0f&url=","ext":{"flag":["1920l","qiyi","爱奇艺","奇艺"]}},
{"name":"天诚影视2","type":1,"url":"https://svip.renrenmi.cc:2222/api/?key=hWip8WQvRg7oniSF0M&url=","ext":{"flag":["qiyi","爱奇艺","奇艺"]}},
{"name":"六把刀影院","type":1,"url":"https://vip.aiaine.com/api/?key=pJiKdUKoatLiVha0el&url=","ext":{"flag":["miaoparty","miaoparty3"]}},
{"name":"段友影视","type":1,"url":"https://api.qilin.best/home/api?type=ys&uid=2343358&key=cekpsuvxJKNOV34789&url=","ext":{"flag":["qq","腾讯"]}},
{"name":"粉象视界","type":1,"url":"http://47.100.138.210:91/home/api?type=ys&uid=4476440&key=eghkvwxyFHORVX3478&url=","ext":{"flag":["mgtv","bilibili","芒果","renrenmi","youku","优酷","qiyi","爱奇艺","奇艺"]}},
{"name":"益达影院6","type":1,"url":"https://jb.vjiangbei.com/home/api?type=ys&uid=281459&key=cfnoprCDJKLNPQTY34&url=","ext":{"flag":["ltnb","ziqie","qq","腾讯","youku","优酷","qiyi","爱奇艺","奇艺","mgtv","芒果","letv","乐视"]}},
{"name":"琅琊影视7","type":1,"url":"https://api.m3u8.tv:5678/home/api?type=ys&uid=123503&key=ghinorsuvBCMOQTY68&url=","ext":{"flag":["ziqie","qiyi","爱奇艺","奇艺","qq","腾讯","mgtv","芒果"]}},
{"name":"粉象视界1","type":1,"url":"https://json.pangujiexi.com:12345/json.php?url=","ext":{"flag":["youku","优酷","qq","腾讯","qiyi","爱奇艺","奇艺","mgtv","芒果"]}},
{"name":"粉象视3界","type":1,"url":"http://api.vip123kan.vip/?url=","ext":{"flag":["qq","腾讯","mgtv","芒果","youku","优酷"]}},
{"name":"雪人","type":1,"url":"https://sf.qd234.cn/api.php/?url="},
{"name":"彩影","type":1,"url":"http://cygc.xyz/api/?key=3MHomw7yrjfcBiTsXf&url="},
{"name":"星空","type":1,"url":"https://nf.xkvideo.design/m3u8.php?url="},
{"name":"白羊","type":1,"url":"https://vip.byteamone.cn/api/?key=WYIBKWhQ1bIYcfbRei&url="},
{"name":"江湖","type":1,"url":"http://47.94.137.151:8089/?url="},
{"name":"永久","type":1,"url":"http://ts.yjhan.com:8090/api/?key=yNSLsBLOaUkKp2kZ6i&url="},
{"name":"自然","type":1,"url":"https://vip.zr.lc/home/api?type=ys&uid=357865&key=cdgjklyzFGIKPVW167&url="},
{"name":"艾特","type":1,"url":"https://vip.23at.cn/home/api?type=ys&uid=4726125&key=dnqrxyDEIKNPUWX036&url="},
{"name":"云播","type":1,"url":"https://json.yunboys.cn/WODMSNC4DL.php?ios=1&app=1&url="},
{"name":"月亮","type":1,"url":"http://jiexi.yunl.cc//api/?key=6OCzkXnrNIxhVxrM8G&url="},
{"name":"糖果","type":1,"url":"http://h.taoge1.com/api/?key=0Pn6dX648Oa77u8dCi&url="},
{"name":"毒舌3","type":1,"url":"http://jf.96ym.cn/home/api?type=ys&uid=203869&key=abdgjkuyADGIKOSZ19&url="},
{"name":"美美","type":1,"url":"https://b.mmhkj.xyz/api/?key=3pkb0anEHxlyIvnQkK&url="},
{"name":"青涩","type":1,"url":"https://jx.73ykj.com/api/?key=YZoP62N2qZ8ugtbbwm&url="},
{"name":"荣耀","type":1,"url":"http://json.rryy.tv/home/api?type=ys&uid=1374470&key=befikqzAEFJSYZ0239&url="},
{"name":"看剧","type":1,"url":"https://jhjx.kuanjv.com/?url="},
{"name":"芒果⁺","type":1,"url":"https://xt.gbxy.net.cn/api/?key=7gAmfK5typSVsg2Qnr&url=","t":452,"i":"checkat2022-01-0614:09:39"},
{"name":"瑞丰","type":1,"url":"https://api.m3u8.tv:5678/home/api?type=ys&uid=1285201&key=bcikqtwxyADEGKUX36&url="},
{"name":"烽火","type":1,"url":"http://jx.fhyy-iptv.top/home/api?type=ys&uid=68958&key=abdeimqstGHITVW247&url="},
{"name":"美瑞","type":1,"url":"https://api.m3u8.tv:5678/home/api?type=ys&uid=4132259&key=beiklmqsBCPQRX0148&url="},
{"name":"人人","type":1,"url":"https://svip.renrenmi.cc:2222/api/?key=CB1vhdzYsRHqOyNl1W&url="},
{"name":"PAR","type":1,"url":"https://api.parwix.com:4433/analysis/json/?uid=556&my=acfhjoprtuvxKLMQ12&url="},
{"name":"融兴²","type":1,"url":"https://supervip.rongxingvr.cn:8866/api/?key=AngnmipM4u7BECCcjq&url="},
{"name":"瑞丰资源","type":1,"url":"https://api.m3u8.tv:5678/home/api?type=ys&uid=1285201&key=bcikqtwxyADEGKUX36&url=","t":123,"i":"checkat2022-01-0614:11:03"},
{"name":"追剧吧1","type":1,"url":"http://newjiexi.gotto.top/yun_apib.php/?url=","t":457,"i":"checkat2022-01-0614:11:52"},
{"name":"4K影院1","type":1,"url":"https://api.m3u8.tv:5678/home/api?type=ys&uid=1095368&key=cdgjpsuDFLNRTUVY03&url=","t":290,"i":"checkat2022-01-0614:09:32"},
{"name":"RX解析","type":1,"url":"https://fast.rongxingvr.cn:8866/api/?key=CwQXkIXGfaUNGVomez&url="},
{"name":"风和","type":1,"url":"https://json.hfyrw.com/mao.go?url="},
{"name":"瑞丰资源","type":1,"url":"https://api.m3u8.tv:5678/home/api?type=ys&uid=1285201&key=bcikqtwxyADEGKUX36&url=","t":123,"i":"checkat2022-01-0614:11:03"},
{"name":"par","type":1,"url":"https://jx.parwix.com:4433/player/?url="},
{"name":"影全","type":1,"url":"https://json.zhongcaopick.com/jsonc/qwysjx.php?url="},
{"name":"全解","type":1,"url":"https://jx.parwix.com/player/?url="},
{"name":"日丽","type":1,"url":"https://json.hfyrw.com/mao.go?&tm=1643866241432&url="},
{"name":"筋斗","type":1,"url":"https://api.m3u8.tv:5678/home/api?type=ys&uid=1494542&key=ijmqvwxABEHILMOT48&url=","t":256,"i":"checkat2022-01-0614:10:14"},
{"name":"云海","type":1,"url":"http://47.100.138.210:91/home/api?type=ys&uid=2086844&key=ajklotxzAGIJPSVX14&url="},
{"name":"M3U8","type":1,"url":"https://api.m3u8.tv:5678/home/api?type=ys&uid=7665652&key=dglmnwEFILMOPRW056&url="},
{"name":"芒果","type":1,"url":"https://api.parwix.com:4433/analysis/json/?uid=1735&my=bcdghuBMOPSUXZ3567&url="},
{"name":"安娜","type":1,"url":"https://jx.parwix.com:4433/player/analysis.php?v="},
{"name":"欢聚","type":1,"url":"http://jx.kuanjv.com/mp4/5.1?url="},
{"name":"千月","type":1,"url":"https://svip.iepig.com:4443/api/?key=jrQvwtb42TAQhMCCYM&url="},
{"name":"17云","type":1,"url":"http://17kyun.com/api.php?url="},
{"name":"白熊","type":1,"url":"https://bx.sb/json.php?url="},
{"name":"爱看","type":1,"url":"https://api.zakkpa.com:8888/analysis/json/?uid=91&my=gjksuvCHIJLRS01268&url="},
{"name":"融兴","type":1,"url":"https://fast.rongxingvr.cn:8866/api/?key=VFxoMtb2bkd8QIYxZL&url="},
{"name":"彩虹","type":1,"url":"http://www.953365.top:4433/api/?key=qKkmu5yRbRH6tQ7yLo&url="},
{"name":"淘影","type":1,"url":"https://www.vodjx.top/api/?key=18cOetIz1kd2wpL6YU&url="},
{"name":"乐喵","type":1,"url":"http://jf.lemiaoyun.cn/home/api?type=ys&uid=1885525&key=bdjkruvwBDEHIKMPV5&url="},
{"name":"菜芽","type":1,"url":"https://www.moyicen.com/home/api?type=ys&uid=122404&key=adikqrvABGKLN01268&url="},
{"name":"麒麟","type":1,"url":"https://api.qilin.best/home/api?type=ys&uid=5147124&key=ahiknopuwxzDEMPUV8&url="},
{"name":"云播","type":1,"url":"http://jiexi.yunl.cc/api/?key=xYNESYSvHp1DV2ckKs&url="},
{"name":"吉祥","type":1,"url":"http://admin.vodjx.top/json.php?url="},
{"name":"OK","type":1,"url":"https://okjx.cc/?url="},
{"name":"209","type":1,"url":"https://m2090.com/?url="},
{"name":"看看","type":1,"url":"https://jiexi.kan365.xyz/?url="},
{"name":"DC影视","type":1,"url":"https://api.m3u8.tv:5678/home/api?type=ys&uid=7665652&key=dglmnwEFILMOPRW056&url=","t":311,"i":"checkat2022-01-0614:11:15"},
{"name":"黄河影视","type":1,"url":"http://jx.ledu8.cn/api/?key=P8QSgO61p1MpHV2ALn&url=","t":465,"i":"checkat2022-01-0614:10:10"},
{"name":"天诚影视5","type":1,"url":"http://json.1920lgzy.top/api/?key=K6ROZoQ9Y5FxzkdgTT&url=","ext":{"flag":["1920l","qiyi","爱奇艺","奇艺"]}},
{"name":"大熊影视1","type":1,"url":"https://a.dxzj88.com/jianghujx/?url=","ext":{"flag":["qq","腾讯","youku","优酷","qiyi","爱奇艺","奇艺","bilibili","哔哩哔哩","哔哩","mgtv","芒果"]}}
],
"flags":[
"youku","qq","iqiyi","qiyi","letv","sohu","tudou","pptv","mgtv","wasu","bilibili","duoduozy","1905","1920l","mim3u8","laodim3u8","leduo","ltnb","renrenmi","xueren","naifeimi","miaoparty","miaoparty2","miaoparty3","x1play","fuckapp","ftqp2","ftqp3","ftqp5","xfyun","shuaju8","ruifeng","wuduyun","xigua","CL4K","mx771","mengxin886","leduo","dplayer","HY4K1","RongXingVR","xfy","duoduozy","renrenmi","rx","4kya","dym3","ftqp4"
],
"ijk":[
{"group":"软解码","options":[{"category":4,"name":"opensles","value":"0"},{"category":4,"name":"overlay-format","value":"842225234"},{"category":4,"name":"framedrop","value":"1"},{"category":4,"name":"soundtouch","value":"1"},{"category":4,"name":"start-on-prepared","value":"1"},{"category":1,"name":"http-detect-range-support","value":"0"},{"category":1,"name":"fflags","value":"fastseek"},{"category":2,"name":"skip_loop_filter","value":"48"},{"category":4,"name":"reconnect","value":"1"},{"category":4,"name":"max-buffer-size","value":"5242880"},{"category":4,"name":"enable-accurate-seek","value":"0"},{"category":4,"name":"mediacodec","value":"0"},{"category":4,"name":"mediacodec-auto-rotate","value":"0"},{"category":4,"name":"mediacodec-handle-resolution-change","value":"0"},{"category":4,"name":"mediacodec-hevc","value":"0"},{"category":1,"name":"dns_cache_timeout","value":"36000000"}]},
{"group":"硬解码","options":[{"category":4,"name":"opensles","value":"0"},{"category":4,"name":"overlay-format","value":"842225234"},{"category":4,"name":"framedrop","value":"1"},{"category":4,"name":"soundtouch","value":"1"},{"category":4,"name":"start-on-prepared","value":"1"},{"category":1,"name":"http-detect-range-support","value":"0"},{"category":1,"name":"fflags","value":"fastseek"},{"category":2,"name":"skip_loop_filter","value":"48"},{"category":4,"name":"reconnect","value":"1"},{"category":4,"name":"max-buffer-size","value":"5242880"},{"category":4,"name":"enable-accurate-seek","value":"0"},{"category":4,"name":"mediacodec","value":"1"},{"category":4,"name":"mediacodec-auto-rotate","value":"1"},{"category":4,"name":"mediacodec-handle-resolution-change","value":"1"},{"category":4,"name":"mediacodec-hevc","value":"1"},{"category":1,"name":"dns_cache_timeout","value":"36000000"}]}
],
"ads":
["mimg.0c1q0l.cn","www.googletagmanager.com","www.google-analytics.com","mc.usihnbcq.cn","mg.g1mm3d.cn","mscs.svaeuzh.cn","cnzz.hhttm.top","tp.vinuxhome.com","cnzz.mmstat.com","www.baihuillq.com","s23.cnzz.com","z3.cnzz.com","c.cnzz.com","stj.v1vo.top","z12.cnzz.com","img.mosflower.cn","tips.gamevvip.com","ehwe.yhdtns.com","xdn.cqqc3.com","www.jixunkyy.cn","sp.chemacid.cn","hm.baidu.com","s9.cnzz.com","z6.cnzz.com","um.cavuc.com","mav.mavuz.com","wofwk.aoidf3.com","z5.cnzz.com","xc.hubeijieshikj.cn","tj.tianwenhu.com","xg.gars57.cn","k.jinxiuzhilv.com","cdn.bootcss.com","ppl.xunzhuo123.com","xomk.jiangjunmh.top","img.xunzhuo123.com","z1.cnzz.com","s13.cnzz.com","xg.huataisangao.cn","z7.cnzz.com","xg.huataisangao.cn","z2.cnzz.com","s96.cnzz.com","q11.cnzz.com","thy.dacedsfa.cn","xg.whsbpw.cn","s19.cnzz.com","z8.cnzz.com","s4.cnzz.com","f5w.as12df.top","ae01.alicdn.com","www.92424.cn","k.wudejia.com","vivovip.mmszxc.top","qiu.xixiqiu.com","cdnjs.hnfenxun.com","cms.qdwght.com"],
"spider":"https://oli-fa.coding.net/p/yue/d/yue/git/raw/main/mzip/1/custom_spider.jar",
"wallpaper":"https://picsum.photos/1080/"
}